0x01 , 0x00 , 0x05 , 0x00 , 0x08 , 0x1C , 0x00 , 0x58 ,
0x03 , 0x03 , 0x03 , 0x03 , 0x03 , 0x03 , 0x03 , 0x03 ,
0x03 , 0x03 , 0x03 , 0x03 , 0x03 , 0x03 , 0x03 , 0x03 ,
0x03 , 0x03 , 0x01 , 0x00 , 0x23 , 0x00 , 0x08 , 0x00 ,
0x00 , 0x00 , 0x00 , 0x00 , 0x00 , 0x00 , 0x00 , 0x00 ,
0x00 , 0x00 , 0x00 , 0x00 , 0x00 , 0x00 , 0x00 , 0x00 ,
0x00 , 0x00 , 0x00 , 0x00 , 0x00 , 0x00 , 0x00 , 0x00 ,
0x00 , 0x00 , 0x00 , 0x00 , 0x00 , 0x00 , 0x00 , 0x00 ,
0x01 , 0x07 , 0x33 , 0x00 , 0x00 , 0x00 , 0x00 , 0x00 ,
0x00 , 0x14 , 0x00 , 0x80 , 0x00 , 0x00 , 0x00 , 0x80 ,
0x00 , 0x00 , 0x00 , 0x7F , 0xFC , 0xB9 , 0x00 , 0x7F ,
0xFC , 0xB9 , 0x00 , 0x40 , 0x00 , 0x00 , 0x00 , 0x40 ,
0x00 , 0x00 , 0x00 , 0xB3 , 0x33 , 0x33 , 0x00 , 0x80 ,
0x00 , 0x00 , 0x00 , 0x80 , 0x00 , 0x00 , 0x00 , 0x59 ,
0x99 , 0x9A , 0x07 , 0x80 , 0x00 , 0x00 , 0x02 , 0x80 ,
0x00 , 0x00 , 0x00 , 0x00 , 0x00 , 0x48 , 0x00 , 0x00 ,
0x00 , 0x90 , 0x00 , 0x00 , 0x00 , 0x48 , 0x00 , 0xFE ,
0xCD , 0x8F , 0xFF , 0x81 , 0x30 , 0x53 , 0x00 , 0x00 ,
0x00 , 0x52 , 0x00 , 0x00 , 0x00 , 0xA5 , 0x00 , 0x00 ,
0x00 , 0x52 , 0x00 , 0xFE , 0xB8 , 0x22 , 0xFF , 0x81 ,
0x45 , 0x71 , 0x00 , 0x00 , 0x00 , 0x5E , 0x00 , 0x00 ,
0x00 , 0xBC , 0x00 , 0x00 , 0x00 , 0x5E , 0x00 , 0xFE ,
0xA1 , 0x36 , 0xFF , 0x81 , 0x5C , 0x05 , 0x00 , 0x00 ,
0x00 , 0x6C , 0x00 , 0x00 , 0x00 , 0xD7 , 0x00 , 0x00 ,
0x00 , 0x6C , 0x00 , 0xFE , 0x88 , 0xAD , 0xFF , 0x81 ,
0x74 , 0x27 , 0x00 , 0x00 , 0x00 , 0x7B , 0x00 , 0x00 ,
0x00 , 0xF6 , 0x00 , 0x00 , 0x00 , 0x7B , 0x00 , 0xFE ,
0x6E , 0x6D , 0xFF , 0x81 , 0x8D , 0xF2 , 0x00 , 0x00 ,
0x00 , 0x8D , 0x00 , 0x00 , 0x01 , 0x1A , 0x00 , 0x00 ,
0x00 , 0x8D , 0x00 , 0xFE , 0x52 , 0x55 , 0xFF , 0x81 ,
0xA9 , 0x85 , 0x00 , 0x00 , 0x00 , 0xA1 , 0x00 , 0x00 ,
0x01 , 0x43 , 0x00 , 0x00 , 0x00 , 0xA1 , 0x00 , 0xFE ,
0x34 , 0x44 , 0xFF , 0x81 , 0xC6 , 0xFD , 0x00 , 0x00 ,
0x00 , 0xB8 , 0x00 , 0x00 , 0x01 , 0x71 , 0x00 , 0x00 ,
0x00 , 0xB8 , 0x00 , 0xFE , 0x14 , 0x17 , 0xFF , 0x81 ,
0xE6 , 0x7C , 0x00 , 0x00 , 0x00 , 0xD3 , 0x00 , 0x00 ,
0x01 , 0xA6 , 0x00 , 0x00 , 0x00 , 0xD3 , 0x00 , 0xFD ,
0xF1 , 0xA7 , 0xFF , 0x82 , 0x08 , 0x24 , 0x00 , 0x00 ,
0x00 , 0xF1 , 0x00 , 0x00 , 0x01 , 0xE3 , 0x00 , 0x00 ,
0x00 , 0xF1 , 0x00 , 0xFD , 0xCC , 0xCB , 0xFF , 0x82 ,
0x2C , 0x1B , 0x00 , 0x00 , 0x01 , 0x14 , 0x00 , 0x00 ,
0x02 , 0x28 , 0x00 , 0x00 , 0x01 , 0x14 , 0x00 , 0xFD ,
0xA5 , 0x59 , 0xFF , 0x82 , 0x52 , 0x88 , 0x00 , 0x00 ,
0x01 , 0x3C , 0x00 , 0x00 , 0x02 , 0x77 , 0x00 , 0x00 ,
0x01 , 0x3C , 0x00 , 0xFD , 0x7B , 0x1F , 0xFF , 0x82 ,
0x7B , 0x97 , 0x00 , 0x00 , 0x01 , 0x69 , 0x00 , 0x00 ,
0x02 , 0xD2 , 0x00 , 0x00 , 0x01 , 0x69 , 0x00 , 0xFD ,
0x4D , 0xED , 0xFF , 0x82 , 0xA7 , 0x74 , 0x00 , 0x00 ,
0x01 , 0x9D , 0x00 , 0x00 , 0x03 , 0x39 , 0x00 , 0x00 ,
0x01 , 0x9D , 0x00 , 0xFD , 0x1D , 0x8C , 0xFF , 0x82 ,
0xD6 , 0x4F , 0x00 , 0x00 , 0x01 , 0xD8 , 0x00 , 0x00 ,
0x03 , 0xB0 , 0x00 , 0x00 , 0x01 , 0xD8 , 0x00 , 0xFC ,
0xE9 , 0xC2 , 0xFF , 0x83 , 0x08 , 0x5A , 0x00 , 0x00 ,
0x02 , 0x1C , 0x00 , 0x00 , 0x04 , 0x37 , 0x00 , 0x00 ,
0x02 , 0x1C , 0x00 , 0xFC , 0xB2 , 0x52 , 0xFF , 0x83 ,
0x3D , 0xCD , 0x00 , 0x00 , 0x02 , 0x69 , 0x00 , 0x00 ,
0x04 , 0xD2 , 0x00 , 0x00 , 0x02 , 0x69 , 0x00 , 0xFC ,
0x76 , 0xF7 , 0xFF , 0x83 , 0x76 , 0xE1 , 0x00 , 0x00 ,
0x02 , 0xC1 , 0x00 , 0x00 , 0x05 , 0x82 , 0x00 , 0x00 ,
0x02 , 0xC1 , 0x00 , 0xFC , 0x37 , 0x6C , 0xFF , 0x83 ,
0xB3 , 0xD2 , 0x00 , 0x00 , 0x03 , 0x26 , 0x00 , 0x00 ,
0x06 , 0x4C , 0x00 , 0x00 , 0x03 , 0x26 , 0x00 , 0xFB ,
0xF3 , 0x63 , 0xFF , 0x83 , 0xF4 , 0xE3 , 0x00 , 0x00 ,
0x03 , 0x9A , 0x00 , 0x00 , 0x07 , 0x33 , 0x00 , 0x00 ,
0x03 , 0x9A , 0x00 , 0xFB , 0xAA , 0x8A , 0xFF , 0x84 ,
0x3A , 0x56 , 0x00 , 0x00 , 0x10 , 0x00 , 0x00 , 0x00 ,
0x08 , 0x00 , 0x00 , 0x80 , 0x00 , 0x00 , 0x00 , 0x00 ,
0x00 , 0x00 , 0x00 , 0x00 , 0x00 , 0x00 , 0x00 , 0x00 ,
0x00 , 0x00 , 0x00 , 0x00 , 0x00 , 0x00 , 0x00 , 0x7B ,
0xF1 , 0xDB , 0x0F , 0x24 , 0x19 , 0xD3 , 0x00 , 0x67 ,
0x7B , 0x91 , 0x00 , 0xDB , 0xE6 , 0x2D , 0x0F , 0x9C ,
0x92 , 0x95 , 0x00 , 0x7F , 0xC9 , 0x54 , 0x0F , 0x00 ,
0x6D , 0x5A , 0x00 , 0x7F , 0xC9 , 0x54 , 0x00 , 0xFF ,
0x92 , 0x9A , 0x0F , 0x80 , 0x6D , 0x4D , 0x00 , 0x7F ,
0xCA , 0xFC , 0x0F , 0x00 , 0x6A , 0x14 , 0x00 , 0x7F ,
0xCA , 0xFC , 0x00 , 0xFF , 0x95 , 0xE1 , 0x0F , 0x80 ,
0x69 , 0xFC , 0x00 , 0x7F , 0xCE , 0x40 , 0x0F , 0x00 ,
0x63 , 0x9F , 0x00 , 0x7F , 0xCE , 0x40 , 0x00 , 0xFF ,
0x9C , 0x55 , 0x0F , 0x80 , 0x63 , 0x74 , 0x00 , 0x7F ,
0xD3 , 0x07 , 0x0F , 0x00 , 0x5A , 0x2D , 0x00 , 0x7F ,
0xD3 , 0x07 , 0x00 , 0xFF , 0xA5 , 0xC8 , 0x0F , 0x80 ,
0x59 , 0xE7 , 0x00 , 0x7F , 0xD9 , 0x2B , 0x0F , 0x00 ,
0x4E , 0x02 , 0x00 , 0x7F , 0xD9 , 0x2B , 0x00 , 0xFF ,
0xB1 , 0xF2 , 0x0F , 0x80 , 0x4D , 0x9F , 0x00 , 0x7F ,
0xE0 , 0x7D , 0x0F , 0x00 , 0x3F , 0x7C , 0x00 , 0x7F ,
0xE0 , 0x7D , 0x00 , 0xFF , 0xC0 , 0x79 , 0x0F , 0x80 ,
0x3E , 0xFA , 0x00 , 0x7F , 0xE8 , 0xC5 , 0x0F , 0x00 ,
0x2F , 0x06 , 0x00 , 0x7F , 0xE8 , 0xC5 , 0x00 , 0xFF ,
0xD0 , 0xEE , 0x0F , 0x80 , 0x2E , 0x6A , 0x00 , 0x7F ,
0xF1 , 0xC3 , 0x0F , 0x00 , 0x1D , 0x1F , 0x00 , 0x7F ,
0xF1 , 0xC3 , 0x00 , 0xFF , 0xE2 , 0xD6 , 0x0F , 0x80 ,
0x1C , 0x6F , 0x00 , 0x7F , 0xFB , 0x30 , 0x0F , 0x00 ,
0x0A , 0x4E , 0x00 , 0x7F , 0xFB , 0x30 , 0x00 , 0xFF ,
0xF5 , 0xA6 , 0x0F , 0x80 , 0x09 , 0x94 , 0x00 , 0x7F ,
0xDD , 0x45 , 0x0F , 0x00 , 0x45 , 0x78 , 0x00 , 0x7F ,
0xDD , 0x45 , 0x00 , 0xFF , 0xBA , 0x83 , 0x0F , 0x80 ,
0x45 , 0x72 , 0x00 , 0x7F , 0xDE , 0x52 , 0x0F , 0x00 ,
0x43 , 0x67 , 0x00 , 0x7F , 0xDE , 0x52 , 0x00 , 0xFF ,
0xBC , 0x94 , 0x0F , 0x80 , 0x43 , 0x56 , 0x00 , 0x7F ,
0xE0 , 0x66 , 0x0F , 0x00 , 0x3F , 0x54 , 0x00 , 0x7F ,
0xE0 , 0x66 , 0x00 , 0xFF , 0xC0 , 0xA8 , 0x0F , 0x80 ,
0x3F , 0x2F , 0x00 , 0x7F , 0xE3 , 0x6F , 0x0F , 0x00 ,
0x39 , 0x5C , 0x00 , 0x7F , 0xE3 , 0x6F , 0x00 , 0xFF ,
0xC6 , 0x9F , 0x0F , 0x80 , 0x39 , 0x1D , 0x00 , 0x7F ,
0xE7 , 0x56 , 0x0F , 0x00 , 0x31 , 0xAC , 0x00 , 0x7F ,
0xE7 , 0x56 , 0x00 , 0xFF , 0xCE , 0x50 , 0x0F , 0x80 ,
0x31 , 0x4F , 0x00 , 0x7F , 0xEB , 0xFD , 0x0F , 0x00 ,
0x28 , 0x7B , 0x00 , 0x7F , 0xEB , 0xFD , 0x00 , 0xFF ,
0xD7 , 0x80 , 0x0F , 0x80 , 0x28 , 0x01 , 0x00 , 0x7F ,
0xF1 , 0x40 , 0x0F , 0x00 , 0x1E , 0x10 , 0x00 , 0x7F ,
0xF1 , 0x40 , 0x00 , 0xFF , 0xE1 , 0xEB , 0x0F , 0x80 ,
0x1D , 0x7B , 0x00 , 0x7F , 0xF6 , 0xF6 , 0x0F , 0x00 ,
0x12 , 0xB7 , 0x00 , 0x7F , 0xF6 , 0xF6 , 0x00 , 0xFF ,
0xED , 0x44 , 0x0F , 0x80 , 0x12 , 0x0E , 0x00 , 0x7F ,
0xFC , 0xF3 , 0x0F , 0x00 , 0x06 , 0xC8 , 0x00 , 0x7F ,
0xFC , 0xF3 , 0x00 , 0xFF , 0xF9 , 0x33 , 0x0F , 0x80 ,
0x06 , 0x15 , 0x00 , 0x40 , 0x00 , 0x00 , 0x00 , 0x40 ,
0x00 , 0x00 , 0x00 , 0x80 , 0x00 , 0x00 , 0x00 , 0x02 ,
0xE3 , 0xE6 , 0x00 , 0x05 , 0xC7 , 0xCC , 0x00 , 0xD8 ,
0xF9 , 0x9B , 0x00 , 0x02 , 0xE3 , 0xE6 , 0x0F , 0x9B ,
0x76 , 0xCD , 0x00 , 0x02 , 0x82 , 0x6E , 0x00 , 0x05 ,
0x04 , 0xDC , 0x00 , 0xBC , 0x64 , 0x6F , 0x00 , 0x02 ,
0x82 , 0x6E , 0x0F , 0xB9 , 0x91 , 0xD9 , 0x00 , 0x58 ,
0xDC , 0xEA , 0x0F , 0x4E , 0x46 , 0x2B , 0x00 , 0xA5 ,
0x77 , 0x43 , 0x00 , 0x58 , 0xDC , 0xEA , 0x0F , 0xC2 ,
0x03 , 0x99 , 0x00 , 0x08 , 0xF5 , 0xC3 , 0x00 , 0x80 ,
0x00 , 0x00 , 0x00 , 0x80 , 0x00 , 0x00 , 0x00 , 0x80 ,
0x00 , 0x00 , 0x00 , 0x80 , 0x00 , 0x00 , 0x00 , 0x80 ,
0x00 , 0x00 , 0x00 , 0x80 , 0x00 , 0x00 , 0x00 , 0x80 ,
0x00 , 0x00 , 0x00 , 0x80 , 0x00 , 0x00 , 0x00 , 0x80 ,
0x00 , 0x00 , 0x00 , 0x80 , 0x00 , 0x00 , 0x00 , 0x80 ,
0x00 , 0x00 , 0x00 , 0x80 , 0x00 , 0x00 , 0x00 , 0x80 ,
0x00 , 0x00 , 0x00 , 0x80 , 0x00 , 0x00 , 0x00 , 0x80 ,
0x00 , 0x00 , 0x00 , 0x80 , 0x00 , 0x00 , 0x00 , 0x80 ,
0x00 , 0x00 , 0x00 , 0x80 , 0x00 , 0x00 , 0x00 , 0x80 ,
0x00 , 0x00 , 0x00 , 0x80 , 0x00 , 0x00 , 0x00 , 0x80 ,
0x00 , 0x00 , 0x00 , 0x80 , 0x00 , 0x00 , 0x00 , 0x7D ,
0xA5 , 0x5E , 0x00 , 0x7B , 0x49 , 0x2C , 0x00 , 0x78 ,
0x0A , 0xAF , 0x00 , 0x74 , 0x05 , 0xDC , 0x00 , 0x6F ,
0x69 , 0xB2 , 0x00 , 0x6A , 0x70 , 0xE5 , 0x00 , 0x65 ,
0x5C , 0x2E , 0x00 , 0x56 , 0x5C , 0x61 , 0x00 , 0x4A ,
0x9B , 0x83 , 0x00 , 0x3E , 0x69 , 0xCC , 0x00 , 0x32 ,
0xCE , 0x3F , 0x00 , 0x28 , 0x6A , 0xE8 , 0x00 , 0x1F ,
0x94 , 0x2E , 0x00 , 0x18 , 0x5D , 0x27 , 0x00 , 0x12 ,
0xAC , 0x1E , 0x00 , 0x0E , 0x4B , 0x16 , 0x00 , 0x0A ,
0xF0 , 0xF5 , 0x00 , 0x23 , 0xEC , 0xCE , 0x00 , 0x19 ,
0x67 , 0x1F , 0x00 , 0x11 , 0xF6 , 0x67 , 0x00 , 0x0C ,
0xB3 , 0x90 , 0x00 , 0x08 , 0xFB , 0x33 , 0x00 , 0x06 ,
0x59 , 0xC8 , 0x00 , 0x00 , 0x00 , 0x00 , 0x00 , 0x00 ,
0x00 , 0x37 , 0x00 , 0x80 , 0x00 , 0x00 , 0x00 , 0x80 ,
0x00 , 0x00 , 0x00 , 0x80 , 0x00 , 0x00 , 0x00 , 0x80 ,
0x00 , 0x00 , 0x00 , 0x80 , 0x00 , 0x00 , 0x00 , 0x80 ,
0x00 , 0x00 , 0x00 , 0x80 , 0x00 , 0x00 , 0x00 , 0x80 ,
0x00 , 0x00 , 0x00 , 0x80 , 0x00 , 0x00 , 0x00 , 0x80 ,
0x00 , 0x00 , 0x00 , 0x80 , 0x00 , 0x00 , 0x00 , 0x80 ,
0x00 , 0x00 , 0x00 , 0x80 , 0x00 , 0x00 , 0x00 , 0x80 ,
0x00 , 0x00 , 0x00 , 0x80 , 0x00 , 0x00 , 0x00 , 0x80 ,
0x00 , 0x00 , 0x00 , 0x80 , 0x00 , 0x00 , 0x00 , 0x80 ,
0x00 , 0x00 , 0x00 , 0x80 , 0x00 , 0x00 , 0x00 , 0x80 ,
0x00 , 0x00 , 0x00 , 0x80 , 0x00 , 0x00 , 0x00 , 0x80 ,
0x00 , 0x00 , 0x00 , 0x80 , 0x00 , 0x00 , 0x00 , 0x80 ,
0x00 , 0x00 , 0x00 , 0x80 , 0x00 , 0x00 , 0x00 , 0x80 ,
0x00 , 0x00 , 0x00 , 0x80 , 0x00 , 0x00 , 0x00 , 0x80 ,
0x00 , 0x00 , 0x00 , 0x80 , 0x00 , 0x00 , 0x00 , 0x80 ,
0x00 , 0x00 , 0x00 , 0x80 , 0x00 , 0x00 , 0x00 , 0x80 ,
0x00 , 0x00 , 0x00 , 0x80 , 0x00 , 0x00 , 0x00 , 0xFF ,
0x64 , 0xC1 , 0x00 , 0x00 , 0x12 , 0xF8 , 0x00 , 0x00 ,
0x0D , 0x80 , 0x00 , 0x00 , 0x00 , 0x12 , 0x00 , 0x80 ,
0x00 , 0x00 , 0x00 , 0x00 , 0x00 , 0x00 , 0x00 , 0x40 ,
0x00 , 0x00 , 0x00 , 0x80 , 0x00 , 0x00 , 0x00 , 0x80 ,
0x00 , 0x00 , 0x00 , 0x80 , 0x00 , 0x00 , 0x00 , 0x80 ,
0x00 , 0x00 , 0x00 , 0x80 , 0x00 , 0x00 , 0x00 , 0x80 ,
0x00 , 0x00 , 0x00 , 0x80 , 0x00 , 0x00 , 0x00 , 0x80 ,
0x00 , 0x00 , 0x00 , 0x80 , 0x00 , 0x00 , 0x00 , 0x80 ,
0x00 , 0x00 , 0x00 , 0x80 , 0x00 , 0x00 , 0x00 , 0x80 ,
0x00 , 0x00 , 0x00 , 0x80 , 0x00 , 0x00 , 0x00 , 0x80 ,
0x00 , 0x00 , 0x00 , 0x80 , 0x00 , 0x00 , 0x00 , 0x80 ,
0x00 , 0x00 , 0x00 , 0x80 , 0x00 , 0x00 , 0x00 , 0x80 ,
0x00 , 0x00 , 0x00 , 0x80 , 0x00 , 0x00 , 0x00 , 0x80 ,
0x00 , 0x00 , 0x00 , 0x80 , 0x00 , 0x00 , 0x00 , 0x80 ,
0x00 , 0x00 , 0x00 , 0x80 , 0x00 , 0x00 , 0x00 , 0x80 ,
0x00 , 0x00 , 0x00 , 0x80 , 0x00 , 0x00 , 0x00 , 0x80 ,
0x00 , 0x00 , 0x00 , 0x80 , 0x00 , 0x00 , 0x00 , 0x80 ,
0x00 , 0x00 , 0x00 , 0x80 , 0x00 , 0x00 , 0x00 , 0x80 ,
0x00 , 0x00 , 0x00 , 0x80 , 0x00 , 0x00 , 0x00 , 0x7F ,
0xDD , 0x36 , 0x00 , 0x5A , 0xEE , 0x3B , 0x00 , 0x40 ,
0x98 , 0xBE , 0x00 , 0x00 , 0x12 , 0xF8 , 0x00 , 0x00 ,
0x0D , 0x80 , 0x00 , 0x00 , 0x00 , 0x12 , 0x00 , 0x80 ,
0x00 , 0x00 , 0x00 , 0x00 , 0x00 , 0x00 , 0x00 , 0x80 ,
0x00 , 0x00 , 0x00 , 0x00 , 0x00 , 0x00 , 0x00 , 0x40 ,
0x00 , 0x00 , 0x00 , 0x80 , 0x00 , 0x00 , 0x00 , 0x80 ,
0x00 , 0x00 , 0x00 , 0x80 , 0x00 , 0x00 , 0x00 , 0x80 ,
0x00 , 0x00 , 0x00 , 0x80 , 0x00 , 0x00 , 0x00 , 0x80 ,
0x00 , 0x00 , 0x00 , 0x80 , 0x00 , 0x00 , 0x00 , 0x80 ,
0x00 , 0x00 , 0x00 , 0x80 , 0x00 , 0x00 , 0x00 , 0x80 ,
0x00 , 0x00 , 0x00 , 0x80 , 0x00 , 0x00 , 0x00 , 0x80 ,
0x00 , 0x00 , 0x00 , 0x80 , 0x00 , 0x00 , 0x00 , 0x80 ,
0x00 , 0x00 , 0x00 , 0x80 , 0x00 , 0x00 , 0x00 , 0x80 ,
0x00 , 0x00 , 0x00 , 0x80 , 0x00 , 0x00 , 0x00 , 0x80 ,
0x00 , 0x00 , 0x00 , 0x80 , 0x00 , 0x00 , 0x00 , 0x80 ,
0x00 , 0x00 , 0x00 , 0x80 , 0x00 , 0x00 , 0x00 , 0x80 ,
0x00 , 0x00 , 0x00 , 0x80 , 0x00 , 0x00 , 0x00 , 0x80 ,
0x00 , 0x00 , 0x00 , 0x80 , 0x00 , 0x00 , 0x00 , 0x80 ,
0x00 , 0x00 , 0x00 , 0x80 , 0x00 , 0x00 , 0x00 , 0x80 ,
0x00 , 0x00 , 0x00 , 0x80 , 0x00 , 0x00 , 0x00 , 0x7A ,
0xB4 , 0x44 , 0x00 , 0x64 , 0x11 , 0xFB , 0x00 , 0x4E ,
0x3C , 0xE3 , 0x00 , 0x3D , 0x2A , 0xDD , 0x00 , 0x2F ,
0xD2 , 0x52 , 0x00 , 0x00 , 0x12 , 0xF8 , 0x00 , 0x00 ,
0x0D , 0x80 , 0x00 , 0x00 , 0x00 , 0x12 , 0x00 , 0x80 ,
0x00 , 0x00 , 0x00 , 0x00 , 0x00 , 0x00 , 0x00 , 0x80 ,
0x00 , 0x00 , 0x00 , 0x00 , 0x00 , 0x00 , 0x0F , 0xFE ,
0x2B , 0xE3 , 0x00 , 0x22 , 0xBE , 0x2C , 0x0F , 0xEA ,
0xAA , 0xAB , 0x00 , 0x6A , 0xAA , 0xAB , 0x0F , 0x9A ,
0x69 , 0xA7 , 0x00 , 0xFD , 0xF7 , 0xDF , 0x08 , 0x3C ,
0x6C , 0x20 , 0x03 , 0xF5 , 0xAA , 0x23 , 0x01 , 0x80 ,
0x00 , 0x00 , 0x01 , 0x00 , 0x00 , 0x00 , 0x00 , 0x33 ,
0x33 , 0x33 , 0x00 , 0x80 , 0x00 , 0x00 , 0x00 , 0x00 ,
0x07 , 0xDC , 0x00 , 0x00 , 0x08 , 0x00 , 0x00 , 0x7F ,
0xF0 , 0x00 , 0x00 , 0x40 , 0x00 , 0x00 , 0x00 , 0x80 ,
0x00 , 0x00 , 0x00 , 0x00 , 0x00 , 0x00 , 0x0F , 0xFE ,
0x2B , 0xE3 , 0x00 , 0x22 , 0xBE , 0x2C , 0x0F , 0xEA ,
0xAA , 0xAB , 0x00 , 0x6A , 0xAA , 0xAB , 0x0F , 0x9A ,
0x69 , 0xA7 , 0x00 , 0xFD , 0xF7 , 0xDF , 0x08 , 0x3C ,
0x6C , 0x20 , 0x03 , 0xF5 , 0xAA , 0x23 , 0x01 , 0x80 ,
0x00 , 0x00 , 0x01 , 0x00 , 0x00 , 0x00 , 0x00 , 0x33 ,
0x33 , 0x33 , 0x00 , 0x80 , 0x00 , 0x00 , 0x00 , 0x00 ,
0x07 , 0xDC , 0x00 , 0x00 , 0x08 , 0x00 , 0x00 , 0x7F ,
0xF0 , 0x00 , 0x00 , 0x80 , 0x00 , 0x00 , 0x00 , 0x80 ,
0x00 , 0x00 , 0x0F , 0xFE , 0x2B , 0xE3 , 0x00 , 0x22 ,
0xBE , 0x2C , 0x0F , 0xEA , 0xAA , 0xAB , 0x00 , 0x6A ,
0xAA , 0xAB , 0x0F , 0x9A , 0x69 , 0xA7 , 0x00 , 0xFD ,
0xF7 , 0xDF , 0x08 , 0x3C , 0x6C , 0x20 , 0x03 , 0xF5 ,
0xAA , 0x23 , 0x01 , 0x80 , 0x00 , 0x00 , 0x01 , 0x00 ,
0x00 , 0x00 , 0x00 , 0x33 , 0x33 , 0x33 , 0x00 , 0x80 ,
0x00 , 0x00 , 0x00 , 0x00 , 0x07 , 0xDC , 0x00 , 0x00 ,
0x08 , 0x00 , 0x00 , 0x7F , 0xF0 , 0x00 , 0x00 , 0x80 ,
0x00 , 0x00 , 0x00 , 0x00 , 0x00 , 0x00 , 0x00 , 0x00 ,
0x4E , 0xB0 , 0x00 , 0x00 , 0x01 , 0xE0 , 0x00 , 0x00 ,
0x07 , 0x1C , 0x0F , 0x80 , 0x00 , 0x00 , 0x01 , 0x13 ,
0x54 , 0x00 , 0x04 , 0x00 , 0x00 , 0x00 , 0x00 , 0x00 ,
0x01 , 0x00 , 0x00 , 0x00 , 0xE8 , 0x01 , 0x00 , 0x00 ,
0x00 , 0x00 , 0x01 , 0x00 , 0x08 , 0x00 , 0xE8 , 0x01 ,
0x00 , 0x00 , 0x00 , 0x00 , 0x01 , 0x00 , 0x10 , 0x00 ,
0xE8 , 0x01 , 0x00 , 0x00 , 0x00 , 0x00 , 0x01 , 0x00 ,
0x18 , 0x00 , 0xE8 , 0x01 , 0x00 , 0x00 , 0x00 , 0x00 ,
0x01 , 0x00 , 0x20 , 0x00 , 0xE8 , 0x01 , 0x00 , 0x00 ,
0x00 , 0x00 , 0x01 , 0x00 , 0x28 , 0x00 , 0xE8 , 0x01 ,
0xFF , 0xF6 , 0x17 , 0x20 , 0x01 , 0x00 , 0x30 , 0x00 ,
0xE2 , 0x01 , 0xFF , 0xF6 , 0x15 , 0x20 , 0x01 , 0x00 ,
0x38 , 0x00 , 0xE2 , 0x01 , 0xFF , 0xF6 , 0x16 , 0x20 ,
0x01 , 0x00 , 0x40 , 0x00 , 0xE2 , 0x01 , 0xFF , 0xF2 ,
0x00 , 0x20 , 0x01 , 0x00 , 0x48 , 0x00 , 0xE2 , 0x01 ,
0xFF , 0xF6 , 0x18 , 0x20 , 0x01 , 0x00 , 0x50 , 0x00 ,
0xE2 , 0x01 , 0x00 , 0x02 , 0x01 , 0x20 , 0x01 , 0x00 ,
0x0A , 0x01 , 0x40 , 0x01 , 0x00 , 0x22 , 0x02 , 0x22 ,
0x01 , 0x00 , 0x2A , 0x02 , 0x44 , 0x01 , 0x00 , 0x00 ,
0x00 , 0x00 , 0x01 , 0x00 , 0x78 , 0x00 , 0xE2 , 0x01 ,
0x00 , 0xB0 , 0x00 , 0xE4 , 0x01 , 0x00 , 0x00 , 0x00 ,
0x00 , 0x01 , 0x00 , 0x41 , 0x08 , 0x20 , 0x01 , 0x00 ,
0x58 , 0x00 , 0xE2 , 0x01 , 0x00 , 0x59 , 0x08 , 0x20 ,
0x01 , 0x00 , 0x68 , 0x00 , 0xE2 , 0x01 , 0x00 , 0x68 ,
0x00 , 0xC0 , 0x01 , 0x00 , 0x4F , 0xFF , 0x20 , 0x01 ,
0x00 , 0x60 , 0x00 , 0xE2 , 0x01 , 0x00 , 0x92 , 0x03 ,
0x20 , 0x01 , 0x00 , 0x82 , 0x03 , 0x34 , 0x01 , 0x00 ,
0x71 , 0x08 , 0x22 , 0x41 , 0x00 , 0x79 , 0x08 , 0x22 ,
0x01 , 0x00 , 0x88 , 0x00 , 0xE2 , 0x01 , 0x00 , 0x00 ,
0x00 , 0x00 , 0x01 , 0x00 , 0x98 , 0x00 , 0xF2 , 0x01 ,
0x00 , 0xCA , 0x04 , 0x20 , 0x01 , 0x00 , 0xBA , 0x04 ,
0x34 , 0x01 , 0x00 , 0xA9 , 0x08 , 0x22 , 0x41 , 0x00 ,
0xB1 , 0x08 , 0x22 , 0x01 , 0x00 , 0xC0 , 0x00 , 0xE2 ,
0x01 , 0x00 , 0x00 , 0x00 , 0x00 , 0x01 , 0x00 , 0xD0 ,
0x00 , 0xF2 , 0x01 , 0x00 , 0x00 , 0x00 , 0x00 , 0x01 ,
0x00 , 0x61 , 0x08 , 0x20 , 0x01 , 0x00 , 0xE0 , 0x00 ,
0xE2 , 0x01 , 0x00 , 0x8A , 0x05 , 0x20 , 0x01 , 0x00 ,
0xC2 , 0x05 , 0x22 , 0x01 , 0x00 , 0x00 , 0x00 , 0x00 ,
0x01 , 0x00 , 0xE8 , 0x00 , 0xE2 , 0x01 , 0x00 , 0x39 ,
0x08 , 0x20 , 0x01 , 0x00 , 0xF9 , 0x08 , 0x22 , 0x41 ,
0x01 , 0x18 , 0x00 , 0xE2 , 0x01 , 0x01 , 0x09 , 0x08 ,
0x20 , 0x01 , 0x00 , 0xF9 , 0x08 , 0x34 , 0x01 , 0x01 ,
0x1A , 0x06 , 0x22 , 0x01 , 0x01 , 0x00 , 0x00 , 0xE2 ,
0x01 , 0x01 , 0x00 , 0x00 , 0xC0 , 0x01 , 0x01 , 0x10 ,
0x00 , 0xF2 , 0x01 , 0x00 , 0xEF , 0xFF , 0x20 , 0x01 ,
0x00 , 0xF0 , 0x00 , 0xE2 , 0x01 , 0x00 , 0xF2 , 0x07 ,
0x20 , 0x01 , 0x01 , 0x20 , 0x00 , 0xE2 , 0x01 , 0x00 ,
0x00 , 0x00 , 0x00 , 0x01 , 0x01 , 0x22 , 0x08 , 0x20 ,
0x01 , 0x01 , 0x28 , 0x00 , 0xE2 , 0x01 , 0x01 , 0x22 ,
0x09 , 0x20 , 0x01 , 0x01 , 0x30 , 0x00 , 0xE2 , 0x01 ,
0x01 , 0x2A , 0x0A , 0x20 , 0x01 , 0x02 , 0x70 , 0x00 ,
0xE2 , 0x01 , 0x00 , 0x00 , 0x00 , 0x00 , 0x01 , 0x01 ,
0x32 , 0x0B , 0x20 , 0x01 , 0x01 , 0x38 , 0x00 , 0xE2 ,
0x01 , 0x00 , 0x00 , 0x00 , 0x00 , 0x01 , 0x00 , 0xE1 ,
0x08 , 0x20 , 0x01 , 0x01 , 0x48 , 0x00 , 0xE2 , 0x01 ,
0xFF , 0xE9 , 0x08 , 0x20 , 0x01 , 0x01 , 0xA0 , 0x00 ,
0xE2 , 0x01 , 0x01 , 0x41 , 0x08 , 0x20 , 0x01 , 0x01 ,
0x49 , 0x08 , 0x22 , 0x49 , 0xFF , 0xF1 , 0x08 , 0x20 ,
0x26 , 0x01 , 0xA0 , 0x00 , 0xE2 , 0x01 , 0x01 , 0x61 ,
0x08 , 0x20 , 0x01 , 0xFF , 0xF2 , 0x72 , 0x22 , 0x49 ,
0x01 , 0x41 , 0x08 , 0x20 , 0x01 , 0x01 , 0x81 , 0x08 ,
0x20 , 0x25 , 0x01 , 0x88 , 0x00 , 0xE2 , 0x01 , 0x01 ,
0x71 , 0x08 , 0x20 , 0x01 , 0xFF , 0xF2 , 0x72 , 0x22 ,
0x49 , 0x01 , 0x41 , 0x08 , 0x20 , 0x01 , 0x01 , 0x91 ,
0x08 , 0x20 , 0x25 , 0x01 , 0x98 , 0x00 , 0xE2 , 0x01 ,
0x01 , 0xA9 , 0x08 , 0x20 , 0x01 , 0x00 , 0x00 , 0x00 ,
0x00 , 0x01 , 0x01 , 0xB8 , 0x00 , 0xF0 , 0x01 , 0x01 ,
0xB9 , 0x08 , 0x20 , 0x01 , 0xFF , 0xF2 , 0x72 , 0x22 ,
0x49 , 0x01 , 0xA1 , 0x08 , 0x20 , 0x01 , 0xFF , 0xE9 ,
0x08 , 0x20 , 0x25 , 0x01 , 0xA0 , 0x00 , 0xE2 , 0x01 ,
0x01 , 0x41 , 0x08 , 0x20 , 0x01 , 0x01 , 0x48 , 0x00 ,
0xE2 , 0x25 , 0x01 , 0x8A , 0x0C , 0x20 , 0x01 , 0x01 ,
0xC0 , 0x00 , 0xE2 , 0x01 , 0x01 , 0xC0 , 0x00 , 0xC0 ,
0x01 , 0x01 , 0x39 , 0x08 , 0x20 , 0x01 , 0x01 , 0xE0 ,
0x00 , 0xE2 , 0x01 , 0x02 , 0x3A , 0x10 , 0x21 , 0x01 ,
0x02 , 0x32 , 0x11 , 0x23 , 0x01 , 0x01 , 0xF2 , 0x10 ,
0x35 , 0x01 , 0x01 , 0xEA , 0x11 , 0x23 , 0x01 , 0x01 ,
0xE2 , 0x0D , 0x23 , 0x01 , 0x01 , 0xDA , 0x0E , 0x23 ,
0x01 , 0x01 , 0xD2 , 0x0F , 0x23 , 0x01 , 0x00 , 0x00 ,
0x00 , 0x00 , 0x01 , 0x01 , 0xF8 , 0x00 , 0xE2 , 0x01 ,
0x02 , 0x40 , 0x00 , 0xF2 , 0x01 , 0x01 , 0x9A , 0x0C ,
0x20 , 0x01 , 0x01 , 0xC8 , 0x00 , 0xE2 , 0x01 , 0x01 ,
0xC8 , 0x00 , 0xC0 , 0x01 , 0x01 , 0x39 , 0x08 , 0x20 ,
0x01 , 0x02 , 0x10 , 0x00 , 0xE2 , 0x01 , 0x02 , 0x52 ,
0x10 , 0x21 , 0x01 , 0x02 , 0x4A , 0x11 , 0x23 , 0x01 ,
0x02 , 0x22 , 0x10 , 0x35 , 0x01 , 0x02 , 0x1A , 0x11 ,
0x23 , 0x01 , 0x02 , 0x12 , 0x0D , 0x23 , 0x01 , 0x02 ,
0x0A , 0x0E , 0x23 , 0x01 , 0x02 , 0x02 , 0x0F , 0x23 ,
0x01 , 0x00 , 0x00 , 0x00 , 0x00 , 0x01 , 0x02 , 0x28 ,
0x00 , 0xE2 , 0x01 , 0x02 , 0x58 , 0x00 , 0xF2 , 0x01 ,
0x01 , 0x51 , 0x08 , 0x20 , 0x01 , 0x01 , 0x61 , 0x08 ,
0x22 , 0x41 , 0x01 , 0xB0 , 0x00 , 0xE2 , 0x01 , 0x01 ,
0x61 , 0x08 , 0x20 , 0x01 , 0x01 , 0xB2 , 0x71 , 0x22 ,
0x01 , 0x01 , 0x68 , 0x00 , 0xE2 , 0x01 , 0xFF , 0xF1 ,
0x08 , 0x20 , 0x01 , 0x01 , 0x69 , 0x08 , 0x22 , 0x41 ,
0x01 , 0x78 , 0x00 , 0xE2 , 0x01 , 0x01 , 0x68 , 0x00 ,
0xC0 , 0x01 , 0x01 , 0xFF , 0xFF , 0x20 , 0x01 , 0x01 ,
0x78 , 0x00 , 0xC0 , 0x01 , 0x02 , 0x2F , 0xFF , 0x22 ,
0x01 , 0x04 , 0x98 , 0x00 , 0xE2 , 0x01 , 0x01 , 0x51 ,
0x08 , 0x20 , 0x01 , 0x01 , 0xA1 , 0x08 , 0x22 , 0x41 ,
0x00 , 0x00 , 0x00 , 0x00 , 0x01 , 0x01 , 0x58 , 0x00 ,
0xF0 , 0x01 , 0x02 , 0x9A , 0x76 , 0x20 , 0x01 , 0x02 ,
0x92 , 0x77 , 0x22 , 0x01 , 0x02 , 0x82 , 0x76 , 0x34 ,
0x01 , 0x02 , 0x7A , 0x77 , 0x22 , 0x01 , 0x02 , 0x72 ,
0x73 , 0x22 , 0x01 , 0x02 , 0x6A , 0x74 , 0x22 , 0x01 ,
0x02 , 0x62 , 0x75 , 0x22 , 0x01 , 0x00 , 0x00 , 0x00 ,
0x00 , 0x01 , 0x02 , 0x88 , 0x00 , 0xE2 , 0x01 , 0x02 ,
0xA0 , 0x00 , 0xF2 , 0x01 , 0x02 , 0xCA , 0x7B , 0x20 ,
0x01 , 0x02 , 0xC2 , 0x7C , 0x22 , 0x01 , 0x02 , 0xB2 ,
0x7B , 0x34 , 0x01 , 0x02 , 0xAA , 0x7C , 0x22 , 0x01 ,
0x02 , 0x8A , 0x78 , 0x22 , 0x01 , 0x02 , 0x82 , 0x79 ,
0x22 , 0x01 , 0x02 , 0x7A , 0x7A , 0x22 , 0x01 , 0x00 ,
0x00 , 0x00 , 0x00 , 0x01 , 0x02 , 0xB8 , 0x00 , 0xE2 ,
0x01 , 0x02 , 0xD0 , 0x00 , 0xF2 , 0x01 , 0x02 , 0xFA ,
0x80 , 0x20 , 0x01 , 0x02 , 0xF2 , 0x81 , 0x22 , 0x01 ,
0x02 , 0xE2 , 0x80 , 0x34 , 0x01 , 0x02 , 0xDA , 0x81 ,
0x22 , 0x01 , 0x02 , 0xBA , 0x7D , 0x22 , 0x01 , 0x02 ,
0xB2 , 0x7E , 0x22 , 0x01 , 0x02 , 0xAA , 0x7F , 0x22 ,
0x01 , 0x00 , 0x00 , 0x00 , 0x00 , 0x01 , 0x02 , 0xE8 ,
0x00 , 0xE2 , 0x01 , 0x03 , 0x00 , 0x00 , 0xF2 , 0x01 ,
0x03 , 0x2A , 0x85 , 0x20 , 0x01 , 0x03 , 0x22 , 0x86 ,
0x22 , 0x01 , 0x03 , 0x12 , 0x85 , 0x34 , 0x01 , 0x03 ,
0x0A , 0x86 , 0x22 , 0x01 , 0x02 , 0xEA , 0x82 , 0x22 ,
0x01 , 0x02 , 0xE2 , 0x83 , 0x22 , 0x01 , 0x02 , 0xDA ,
0x84 , 0x22 , 0x01 , 0x00 , 0x00 , 0x00 , 0x00 , 0x01 ,
0x03 , 0x18 , 0x00 , 0xE2 , 0x01 , 0x03 , 0x30 , 0x00 ,
0xF2 , 0x01 , 0x03 , 0x5A , 0x8A , 0x20 , 0x01 , 0x03 ,
0x52 , 0x8B , 0x22 , 0x01 , 0x03 , 0x42 , 0x8A , 0x34 ,
0x01 , 0x03 , 0x3A , 0x8B , 0x22 , 0x01 , 0x03 , 0x1A ,
0x87 , 0x22 , 0x01 , 0x03 , 0x12 , 0x88 , 0x22 , 0x01 ,
0x03 , 0x0A , 0x89 , 0x22 , 0x01 , 0x00 , 0x00 , 0x00 ,
0x00 , 0x01 , 0x03 , 0x48 , 0x00 , 0xE2 , 0x01 , 0x03 ,
0x60 , 0x00 , 0xF2 , 0x01 , 0x03 , 0x8A , 0x8F , 0x20 ,
0x01 , 0x03 , 0x82 , 0x90 , 0x22 , 0x01 , 0x03 , 0x72 ,
0x8F , 0x34 , 0x01 , 0x03 , 0x6A , 0x90 , 0x22 , 0x01 ,
0x03 , 0x4A , 0x8C , 0x22 , 0x01 , 0x03 , 0x42 , 0x8D ,
0x22 , 0x01 , 0x03 , 0x3A , 0x8E , 0x22 , 0x01 , 0x00 ,
0x00 , 0x00 , 0x00 , 0x01 , 0x03 , 0x78 , 0x00 , 0xE2 ,
0x01 , 0x03 , 0x90 , 0x00 , 0xF2 , 0x01 , 0x03 , 0xBA ,
0x94 , 0x20 , 0x01 , 0x03 , 0xB2 , 0x95 , 0x22 , 0x01 ,
0x03 , 0xA2 , 0x94 , 0x34 , 0x01 , 0x03 , 0x9A , 0x95 ,
0x22 , 0x01 , 0x03 , 0x7A , 0x91 , 0x22 , 0x01 , 0x03 ,
0x72 , 0x92 , 0x22 , 0x01 , 0x03 , 0x6A , 0x93 , 0x22 ,
0x01 , 0x00 , 0x00 , 0x00 , 0x00 , 0x01 , 0x03 , 0xA8 ,
0x00 , 0xE2 , 0x01 , 0x03 , 0xC0 , 0x00 , 0xF2 , 0x01 ,
0x03 , 0xEA , 0x99 , 0x20 , 0x01 , 0x03 , 0xE2 , 0x9A ,
0x22 , 0x01 , 0x03 , 0xD2 , 0x99 , 0x34 , 0x01 , 0x03 ,
0xCA , 0x9A , 0x22 , 0x01 , 0x03 , 0xAA , 0x96 , 0x22 ,
0x01 , 0x03 , 0xA2 , 0x97 , 0x22 , 0x01 , 0x03 , 0x9A ,
0x98 , 0x22 , 0x01 , 0x00 , 0x00 , 0x00 , 0x00 , 0x01 ,
0x03 , 0xD8 , 0x00 , 0xE2 , 0x01 , 0x03 , 0xF0 , 0x00 ,
0xF2 , 0x01 , 0x04 , 0x1A , 0x9E , 0x20 , 0x01 , 0x04 ,
0x12 , 0x9F , 0x22 , 0x01 , 0x04 , 0x02 , 0x9E , 0x34 ,
0x01 , 0x03 , 0xFA , 0x9F , 0x22 , 0x01 , 0x03 , 0xDA ,
0x9B , 0x22 , 0x01 , 0x03 , 0xD2 , 0x9C , 0x22 , 0x01 ,
0x03 , 0xCA , 0x9D , 0x22 , 0x01 , 0x00 , 0x00 , 0x00 ,
0x00 , 0x01 , 0x04 , 0x08 , 0x00 , 0xE2 , 0x01 , 0x04 ,
0x20 , 0x00 , 0xF2 , 0x01 , 0x04 , 0x4A , 0xA3 , 0x20 ,
0x01 , 0x04 , 0x42 , 0xA4 , 0x22 , 0x01 , 0x04 , 0x32 ,
0xA3 , 0x34 , 0x01 , 0x04 , 0x2A , 0xA4 , 0x22 , 0x01 ,
0x04 , 0x0A , 0xA0 , 0x22 , 0x01 , 0x04 , 0x02 , 0xA1 ,
0x22 , 0x01 , 0x03 , 0xFA , 0xA2 , 0x22 , 0x01 , 0x00 ,
0x00 , 0x00 , 0x00 , 0x01 , 0x04 , 0x38 , 0x00 , 0xE2 ,
0x01 , 0x04 , 0x50 , 0x00 , 0xF2 , 0x01 , 0x04 , 0x7A ,
0xA8 , 0x20 , 0x01 , 0x04 , 0x72 , 0xA9 , 0x22 , 0x01 ,
0x04 , 0x62 , 0xA8 , 0x34 , 0x01 , 0x04 , 0x5A , 0xA9 ,
0x22 , 0x01 , 0x04 , 0x3A , 0xA5 , 0x22 , 0x01 , 0x04 ,
0x32 , 0xA6 , 0x22 , 0x01 , 0x04 , 0x2A , 0xA7 , 0x22 ,
0x01 , 0x00 , 0x00 , 0x00 , 0x00 , 0x01 , 0x04 , 0x68 ,
0x00 , 0xE2 , 0x01 , 0x04 , 0x80 , 0x00 , 0xF2 , 0x01 ,
0x04 , 0xC2 , 0xAD , 0x20 , 0x01 , 0x04 , 0xBA , 0xAE ,
0x22 , 0x01 , 0x04 , 0xAA , 0xAD , 0x34 , 0x01 , 0x04 ,
0xA2 , 0xAE , 0x22 , 0x01 , 0x04 , 0x9A , 0xAA , 0x22 ,
0x01 , 0x04 , 0x92 , 0xAB , 0x22 , 0x01 , 0x04 , 0x8A ,
0xAC , 0x22 , 0x01 , 0x00 , 0x00 , 0x00 , 0x00 , 0x01 ,
0x04 , 0xB0 , 0x00 , 0xE2 , 0x01 , 0x04 , 0xC8 , 0x00 ,
0xF2 , 0x01 , 0x04 , 0xF2 , 0xB2 , 0x20 , 0x01 , 0x04 ,
0xEA , 0xB3 , 0x22 , 0x01 , 0x04 , 0xDA , 0xB2 , 0x34 ,
0x01 , 0x04 , 0xD2 , 0xB3 , 0x22 , 0x01 , 0x04 , 0xB2 ,
0xAF , 0x22 , 0x01 , 0x04 , 0xAA , 0xB0 , 0x22 , 0x01 ,
0x04 , 0xA2 , 0xB1 , 0x22 , 0x01 , 0x00 , 0x00 , 0x00 ,
0x00 , 0x01 , 0x04 , 0xE0 , 0x00 , 0xE2 , 0x01 , 0x04 ,
0xF8 , 0x00 , 0xF2 , 0x01 , 0x05 , 0x22 , 0xB7 , 0x20 ,
0x01 , 0x05 , 0x1A , 0xB8 , 0x22 , 0x01 , 0x05 , 0x0A ,
0xB7 , 0x34 , 0x01 , 0x05 , 0x02 , 0xB8 , 0x22 , 0x01 ,
0x04 , 0xE2 , 0xB4 , 0x22 , 0x01 , 0x04 , 0xDA , 0xB5 ,
0x22 , 0x01 , 0x04 , 0xD2 , 0xB6 , 0x22 , 0x01 , 0x00 ,
0x00 , 0x00 , 0x00 , 0x01 , 0x05 , 0x10 , 0x00 , 0xE2 ,
0x01 , 0x05 , 0x28 , 0x00 , 0xF2 , 0x01 , 0x05 , 0x52 ,
0xBC , 0x20 , 0x01 , 0x05 , 0x4A , 0xBD , 0x22 , 0x01 ,
0x05 , 0x3A , 0xBC , 0x34 , 0x01 , 0x05 , 0x32 , 0xBD ,
0x22 , 0x01 , 0x05 , 0x12 , 0xB9 , 0x22 , 0x01 , 0x05 ,
0x0A , 0xBA , 0x22 , 0x01 , 0x05 , 0x02 , 0xBB , 0x22 ,
0x01 , 0x00 , 0x00 , 0x00 , 0x00 , 0x01 , 0x05 , 0x40 ,
0x00 , 0xE2 , 0x01 , 0x05 , 0x58 , 0x00 , 0xF2 , 0x01 ,
0x05 , 0x82 , 0xC1 , 0x20 , 0x01 , 0x05 , 0x7A , 0xC2 ,
0x22 , 0x01 , 0x05 , 0x6A , 0xC1 , 0x34 , 0x01 , 0x05 ,
0x62 , 0xC2 , 0x22 , 0x01 , 0x05 , 0x42 , 0xBE , 0x22 ,
0x01 , 0x05 , 0x3A , 0xBF , 0x22 , 0x01 , 0x05 , 0x32 ,
0xC0 , 0x22 , 0x01 , 0x00 , 0x00 , 0x00 , 0x00 , 0x01 ,
0x05 , 0x70 , 0x00 , 0xE2 , 0x01 , 0x05 , 0x88 , 0x00 ,
0xF2 , 0x01 , 0x05 , 0xB2 , 0xC6 , 0x20 , 0x01 , 0x05 ,
0xAA , 0xC7 , 0x22 , 0x01 , 0x05 , 0x9A , 0xC6 , 0x34 ,
0x01 , 0x05 , 0x92 , 0xC7 , 0x22 , 0x01 , 0x05 , 0x72 ,
0xC3 , 0x22 , 0x01 , 0x05 , 0x6A , 0xC4 , 0x22 , 0x01 ,
0x05 , 0x62 , 0xC5 , 0x22 , 0x01 , 0x00 , 0x00 , 0x00 ,
0x00 , 0x01 , 0x05 , 0xA0 , 0x00 , 0xE2 , 0x01 , 0x05 ,
0xB8 , 0x00 , 0xF2 , 0x01 , 0x05 , 0xE2 , 0xCB , 0x20 ,
0x01 , 0x05 , 0xDA , 0xCC , 0x22 , 0x01 , 0x05 , 0xCA ,
0xCB , 0x34 , 0x01 , 0x05 , 0xC2 , 0xCC , 0x22 , 0x01 ,
0x05 , 0xA2 , 0xC8 , 0x22 , 0x01 , 0x05 , 0x9A , 0xC9 ,
0x22 , 0x01 , 0x05 , 0x92 , 0xCA , 0x22 , 0x01 , 0x00 ,
0x00 , 0x00 , 0x00 , 0x01 , 0x05 , 0xD0 , 0x00 , 0xE2 ,
0x01 , 0x05 , 0xE8 , 0x00 , 0xF2 , 0x01 , 0x06 , 0x12 ,
0xD0 , 0x20 , 0x01 , 0x06 , 0x0A , 0xD1 , 0x22 , 0x01 ,
0x05 , 0xFA , 0xD0 , 0x34 , 0x01 , 0x05 , 0xF2 , 0xD1 ,
0x22 , 0x01 , 0x05 , 0xD2 , 0xCD , 0x22 , 0x01 , 0x05 ,
0xCA , 0xCE , 0x22 , 0x01 , 0x05 , 0xC2 , 0xCF , 0x22 ,
0x01 , 0x00 , 0x00 , 0x00 , 0x00 , 0x01 , 0x06 , 0x00 ,
0x00 , 0xE2 , 0x01 , 0x06 , 0x18 , 0x00 , 0xF2 , 0x01 ,
0x06 , 0x42 , 0xD5 , 0x20 , 0x01 , 0x06 , 0x3A , 0xD6 ,
0x22 , 0x01 , 0x06 , 0x2A , 0xD5 , 0x34 , 0x01 , 0x06 ,
0x22 , 0xD6 , 0x22 , 0x01 , 0x06 , 0x02 , 0xD2 , 0x22 ,
0x01 , 0x05 , 0xFA , 0xD3 , 0x22 , 0x01 , 0x05 , 0xF2 ,
0xD4 , 0x22 , 0x01 , 0x00 , 0x00 , 0x00 , 0x00 , 0x01 ,
0x06 , 0x30 , 0x00 , 0xE2 , 0x01 , 0x06 , 0x48 , 0x00 ,
0xF2 , 0x01 , 0x00 , 0x51 , 0x08 , 0x20 , 0x01 , 0x06 ,
0x59 , 0x08 , 0x22 , 0x41 , 0x06 , 0x78 , 0x00 , 0xE2 ,
0x01 , 0x06 , 0x69 , 0x08 , 0x20 , 0x01 , 0x06 , 0x59 ,
0x08 , 0x34 , 0x01 , 0x06 , 0x7A , 0xD7 , 0x22 , 0x01 ,
0x06 , 0x60 , 0x00 , 0xE2 , 0x01 , 0x06 , 0x60 , 0x00 ,
0xC0 , 0x01 , 0x06 , 0x70 , 0x00 , 0xF2 , 0x01 , 0x04 ,
0x6F , 0xFF , 0x20 , 0x01 , 0x06 , 0x50 , 0x00 , 0xE2 ,
0x01 , 0x00 , 0x31 , 0x08 , 0x20 , 0x01 , 0x06 , 0x89 ,
0x08 , 0x22 , 0x41 , 0x06 , 0xA8 , 0x00 , 0xE2 , 0x01 ,
0x06 , 0x99 , 0x08 , 0x20 , 0x01 , 0x06 , 0x89 , 0x08 ,
0x34 , 0x01 , 0x06 , 0xAA , 0xD8 , 0x22 , 0x01 , 0x06 ,
0x90 , 0x00 , 0xE2 , 0x01 , 0x06 , 0x90 , 0x00 , 0xC0 ,
0x01 , 0x06 , 0xA0 , 0x00 , 0xF2 , 0x01 , 0x06 , 0x37 ,
0xFF , 0x20 , 0x01 , 0x06 , 0x80 , 0x00 , 0xE2 , 0x01 ,
0x06 , 0x52 , 0xD9 , 0x20 , 0x01 , 0x00 , 0x00 , 0x00 ,
0x00 , 0x01 , 0x06 , 0xD0 , 0x00 , 0xE2 , 0x01 , 0x06 ,
0xFA , 0xDC , 0x20 , 0x01 , 0x06 , 0xF2 , 0xDE , 0x22 ,
0x01 , 0x06 , 0xE2 , 0xDC , 0x34 , 0x01 , 0x06 , 0xDA ,
0xDE , 0x22 , 0x01 , 0x06 , 0xD2 , 0xDA , 0x22 , 0x01 ,
0x06 , 0xCA , 0xDB , 0x22 , 0x01 , 0x06 , 0xC2 , 0xDD ,
0x22 , 0x01 , 0x00 , 0x00 , 0x00 , 0x00 , 0x01 , 0x06 ,
0xE8 , 0x00 , 0xE2 , 0x01 , 0x07 , 0x00 , 0x00 , 0xF2 ,
0x01 , 0x07 , 0x2A , 0xE1 , 0x20 , 0x01 , 0x07 , 0x22 ,
0xE3 , 0x22 , 0x01 , 0x07 , 0x12 , 0xE1 , 0x34 , 0x01 ,
0x07 , 0x0A , 0xE3 , 0x22 , 0x01 , 0x06 , 0xEA , 0xDF ,
0x22 , 0x01 , 0x06 , 0xE2 , 0xE0 , 0x22 , 0x01 , 0x06 ,
0xDA , 0xE2 , 0x22 , 0x01 , 0x00 , 0x00 , 0x00 , 0x00 ,
0x01 , 0x07 , 0x18 , 0x00 , 0xE2 , 0x01 , 0x06 , 0xB0 ,
0x00 , 0xE2 , 0x01 , 0x07 , 0x30 , 0x00 , 0xF2 , 0x01 ,
0x06 , 0x51 , 0x08 , 0x20 , 0x01 , 0x00 , 0x00 , 0x00 ,
0x00 , 0x01 , 0x07 , 0x48 , 0x00 , 0xE2 , 0x01 , 0x07 ,
0x72 , 0xE6 , 0x20 , 0x01 , 0x07 , 0x6A , 0xE8 , 0x22 ,
0x01 , 0x07 , 0x5A , 0xE6 , 0x34 , 0x01 , 0x07 , 0x52 ,
0xE8 , 0x22 , 0x01 , 0x07 , 0x4A , 0xE4 , 0x22 , 0x01 ,
0x07 , 0x42 , 0xE5 , 0x22 , 0x01 , 0x07 , 0x3A , 0xE7 ,
0x22 , 0x01 , 0x00 , 0x00 , 0x00 , 0x00 , 0x01 , 0x07 ,
0x60 , 0x00 , 0xE2 , 0x01 , 0x06 , 0xB8 , 0x00 , 0xE2 ,
0x01 , 0x07 , 0x78 , 0x00 , 0xF2 , 0x01 , 0x06 , 0xBA ,
0xE9 , 0x20 , 0x01 , 0x07 , 0x80 , 0x00 , 0xE2 , 0x01 ,
0x00 , 0x00 , 0x00 , 0x00 , 0x01 , 0x06 , 0x81 , 0x0C ,
0x40 , 0x01 , 0x08 , 0x00 , 0x00 , 0xE4 , 0x01 , 0x08 ,
0x00 , 0x00 , 0xC0 , 0x01 , 0x08 , 0x07 , 0xFF , 0x40 ,
0x01 , 0x08 , 0x18 , 0x00 , 0xE4 , 0x01 , 0x06 , 0x80 ,
0x00 , 0xC0 , 0x01 , 0x06 , 0x87 , 0xFF , 0x20 , 0x01 ,
0x00 , 0x00 , 0x00 , 0x00 , 0x01 , 0x08 , 0x08 , 0x00 ,
0xE2 , 0x01 , 0x08 , 0x10 , 0x00 , 0xF2 , 0x01 , 0xFF ,
0xF1 , 0x07 , 0x40 , 0x09 , 0xFF , 0xE9 , 0x08 , 0x42 ,
0x01 , 0x08 , 0x19 , 0x08 , 0x20 , 0x01 , 0xFF , 0xE9 ,
0x08 , 0x24 , 0x23 , 0x00 , 0x00 , 0x00 , 0x00 , 0x01 ,
0x07 , 0xE8 , 0x00 , 0xE2 , 0x01 , 0x07 , 0xE0 , 0x00 ,
0xF2 , 0x01 , 0x07 , 0xE1 , 0x0A , 0x20 , 0x01 , 0x07 ,
0xE9 , 0x0A , 0x34 , 0x01 , 0x00 , 0x00 , 0x00 , 0x00 ,
0x01 , 0xFF , 0xE9 , 0x08 , 0x82 , 0x01 , 0xFF , 0xF1 ,
0x0A , 0x20 , 0x01 , 0xFF , 0xE9 , 0x08 , 0x42 , 0x01 ,
0x08 , 0x20 , 0x00 , 0xF6 , 0x01 , 0x08 , 0x21 , 0x08 ,
0x22 , 0x01 , 0x07 , 0xC8 , 0x00 , 0xE2 , 0x01 , 0x00 ,
0x00 , 0x00 , 0x00 , 0x01 , 0x07 , 0xC8 , 0x00 , 0xF6 ,
0x23 , 0x07 , 0xA1 , 0x08 , 0x20 , 0x09 , 0x07 , 0xA8 ,
0x00 , 0xE2 , 0x01 , 0x07 , 0x91 , 0x08 , 0x20 , 0x01 ,
0xFF , 0xF3 , 0x18 , 0x22 , 0x67 , 0x07 , 0x98 , 0x00 ,
0xE2 , 0x01 , 0x07 , 0xC9 , 0x08 , 0x22 , 0x49 , 0x07 ,
0xC9 , 0x08 , 0x20 , 0x01 , 0x07 , 0x98 , 0x00 , 0xE2 ,
0x27 , 0xFF , 0xF3 , 0x17 , 0x20 , 0x01 , 0x07 , 0xA8 ,
0x00 , 0xE2 , 0x27 , 0x00 , 0x00 , 0x00 , 0x00 , 0x01 ,
0x07 , 0xA9 , 0x08 , 0x20 , 0x09 , 0xFF , 0xF9 , 0x08 ,
0x22 , 0x41 , 0x07 , 0xA8 , 0x00 , 0xE2 , 0x26 , 0x07 ,
0x99 , 0x1A , 0x20 , 0x01 , 0x00 , 0x00 , 0x00 , 0x00 ,
0x01 , 0x07 , 0xD0 , 0x00 , 0xE2 , 0x01 , 0x07 , 0xD8 ,
0x00 , 0xF2 , 0x01 , 0x07 , 0xD0 , 0x00 , 0xC0 , 0x01 ,
0x00 , 0x00 , 0x00 , 0x00 , 0x01 , 0x07 , 0xD1 , 0x08 ,
0x20 , 0x01 , 0x07 , 0xD1 , 0x0C , 0x20 , 0x01 , 0x07 ,
0xF0 , 0x00 , 0xF2 , 0x01 , 0x00 , 0x02 , 0xEB , 0xA1 ,
0x01 , 0xFF , 0xE1 , 0x08 , 0x20 , 0x01 , 0x00 , 0x02 ,
0xEA , 0xA1 , 0x01 , 0xFF , 0xE1 , 0x08 , 0x22 , 0x41 ,
0x07 , 0xB0 , 0x00 , 0xE2 , 0x01 , 0x07 , 0xF1 , 0x08 ,
0x20 , 0x01 , 0x07 , 0xD8 , 0x00 , 0xC0 , 0x01 , 0x07 ,
0xB7 , 0xFF , 0x20 , 0x01 , 0xFF , 0xE1 , 0x08 , 0x22 ,
0x01 , 0x07 , 0xC0 , 0x00 , 0xE2 , 0x01 , 0x07 , 0xC0 ,
0x00 , 0xC0 , 0x01 , 0x07 , 0xD9 , 0x08 , 0x20 , 0x01 ,
0x06 , 0x87 , 0xFF , 0x20 , 0x01 , 0x07 , 0x88 , 0x00 ,
0xE2 , 0x01 , 0xFF , 0xF3 , 0x3E , 0x20 , 0x01 , 0x08 ,
0x78 , 0x00 , 0xE2 , 0x01 , 0x08 , 0x79 , 0x09 , 0x20 ,
0x01 , 0x08 , 0x78 , 0x00 , 0xE2 , 0x01 , 0x08 , 0x78 ,
0x00 , 0xC0 , 0x01 , 0x06 , 0xB7 , 0xFF , 0x20 , 0x01 ,
0x06 , 0xB7 , 0xFF , 0x22 , 0x01 , 0x08 , 0x80 , 0x00 ,
0xE2 , 0x01 , 0x08 , 0x80 , 0x00 , 0xC0 , 0x01 , 0x08 ,
0x87 , 0xFF , 0x20 , 0x01 , 0x00 , 0x00 , 0x00 , 0x00 ,
0x01 , 0x08 , 0xA0 , 0x00 , 0xE2 , 0x01 , 0x08 , 0xA8 ,
0x00 , 0xF2 , 0x01 , 0x08 , 0x49 , 0x08 , 0x20 , 0x01 ,
0x08 , 0x4B , 0x3B , 0x22 , 0x41 , 0x08 , 0xAB , 0x3B ,
0x22 , 0x01 , 0x08 , 0x39 , 0x08 , 0x34 , 0x01 , 0x08 ,
0x3B , 0x3B , 0x22 , 0x41 , 0x08 , 0xA3 , 0x3B , 0x82 ,
0x01 , 0x08 , 0xA3 , 0x3B , 0x22 , 0x01 , 0x00 , 0x00 ,
0x00 , 0x00 , 0x01 , 0x08 , 0x40 , 0x00 , 0xE2 , 0x01 ,
0x08 , 0x50 , 0x00 , 0xF2 , 0x01 , 0x08 , 0xB0 , 0x00 ,
0xF6 , 0x01 , 0x08 , 0x41 , 0x0C , 0x20 , 0x01 , 0x08 ,
0xC8 , 0x00 , 0xF2 , 0x01 , 0x08 , 0x69 , 0x08 , 0x20 ,
0x09 , 0x08 , 0x70 , 0x00 , 0xE2 , 0x01 , 0x08 , 0xC9 ,
0x08 , 0x20 , 0x01 , 0x08 , 0x59 , 0x08 , 0x20 , 0x01 ,
0xFF , 0xF3 , 0x3D , 0x22 , 0x67 , 0x08 , 0x60 , 0x00 ,
0xE2 , 0x01 , 0x08 , 0xB1 , 0x08 , 0x22 , 0x49 , 0x08 ,
0xB1 , 0x08 , 0x20 , 0x01 , 0x08 , 0x60 , 0x00 , 0xE2 ,
0x27 , 0xFF , 0xF3 , 0x3C , 0x20 , 0x01 , 0x08 , 0x70 ,
0x00 , 0xE2 , 0x27 , 0x00 , 0x00 , 0x00 , 0x00 , 0x01 ,
0x08 , 0x71 , 0x08 , 0x20 , 0x09 , 0xFF , 0xF9 , 0x08 ,
0x22 , 0x41 , 0x08 , 0x70 , 0x00 , 0xE2 , 0x26 , 0x08 ,
0x61 , 0x1A , 0x20 , 0x01 , 0x00 , 0x00 , 0x00 , 0x00 ,
0x01 , 0x08 , 0xB8 , 0x00 , 0xE2 , 0x01 , 0x08 , 0xC0 ,
0x00 , 0xF2 , 0x01 , 0x08 , 0xB8 , 0x00 , 0xC0 , 0x01 ,
0x00 , 0x00 , 0x00 , 0x00 , 0x01 , 0x00 , 0x03 , 0x1A ,
0xA1 , 0x01 , 0xFF , 0xE1 , 0x08 , 0x20 , 0x01 , 0x00 ,
0x03 , 0x19 , 0xA1 , 0x01 , 0xFF , 0xE1 , 0x08 , 0x22 ,
0x41 , 0x08 , 0x88 , 0x00 , 0xE2 , 0x01 , 0x08 , 0xC0 ,
0x00 , 0xC0 , 0x01 , 0x08 , 0x8F , 0xFF , 0x20 , 0x01 ,
0xFF , 0xE1 , 0x08 , 0x22 , 0x01 , 0x08 , 0x98 , 0x00 ,
0xE2 , 0x01 , 0x08 , 0x98 , 0x00 , 0xC0 , 0x01 , 0x08 ,
0x79 , 0x07 , 0x20 , 0x01 , 0x08 , 0x78 , 0x00 , 0xE2 ,
0x01 , 0x08 , 0x7F , 0xFF , 0x20 , 0x01 , 0x08 , 0x98 ,
0x00 , 0xE2 , 0x01 , 0x08 , 0x98 , 0x00 , 0xC0 , 0x01 ,
0x06 , 0xB7 , 0xFF , 0x20 , 0x01 , 0x08 , 0x28 , 0x00 ,
0xE2 , 0x01 , 0x06 , 0xB7 , 0xFF , 0x20 , 0x01 , 0x08 ,
0x30 , 0x00 , 0xE2 , 0x01 , 0x08 , 0x2B , 0x40 , 0x20 ,
0x01 , 0x08 , 0x33 , 0x40 , 0x22 , 0x01 , 0x00 , 0x00 ,
0x00 , 0x00 , 0x01 , 0x08 , 0xD0 , 0x00 , 0xE2 , 0x01 ,
0xFF , 0xF3 , 0x66 , 0x20 , 0x01 , 0x09 , 0x28 , 0x00 ,
0xE2 , 0x01 , 0x09 , 0x29 , 0x09 , 0x20 , 0x01 , 0x09 ,
0x28 , 0x00 , 0xE2 , 0x01 , 0x09 , 0x28 , 0x00 , 0xC0 ,
0x01 , 0x07 , 0x87 , 0xFF , 0x20 , 0x01 , 0x07 , 0x87 ,
0xFF , 0x22 , 0x01 , 0x09 , 0x30 , 0x00 , 0xE2 , 0x01 ,
0x09 , 0x30 , 0x00 , 0xC0 , 0x01 , 0x09 , 0x37 , 0xFF ,
0x20 , 0x01 , 0x00 , 0x00 , 0x00 , 0x00 , 0x01 , 0x09 ,
0x50 , 0x00 , 0xE2 , 0x01 , 0x09 , 0x58 , 0x00 , 0xF2 ,
0x01 , 0x08 , 0xF9 , 0x08 , 0x20 , 0x01 , 0x08 , 0xFB ,
0x63 , 0x22 , 0x41 , 0x09 , 0x5B , 0x63 , 0x22 , 0x01 ,
0x08 , 0xE9 , 0x08 , 0x34 , 0x01 , 0x08 , 0xEB , 0x63 ,
0x22 , 0x41 , 0x09 , 0x53 , 0x63 , 0x82 , 0x01 , 0x09 ,
0x53 , 0x63 , 0x22 , 0x01 , 0x00 , 0x00 , 0x00 , 0x00 ,
0x01 , 0x08 , 0xF0 , 0x00 , 0xE2 , 0x01 , 0x09 , 0x00 ,
0x00 , 0xF2 , 0x01 , 0x09 , 0x60 , 0x00 , 0xF6 , 0x01 ,
0x08 , 0xF1 , 0x0C , 0x20 , 0x01 , 0x09 , 0x78 , 0x00 ,
0xF2 , 0x01 , 0x09 , 0x19 , 0x08 , 0x20 , 0x09 , 0x09 ,
0x20 , 0x00 , 0xE2 , 0x01 , 0x09 , 0x79 , 0x08 , 0x20 ,
0x01 , 0x09 , 0x09 , 0x08 , 0x20 , 0x01 , 0xFF , 0xF3 ,
0x65 , 0x22 , 0x67 , 0x09 , 0x10 , 0x00 , 0xE2 , 0x01 ,
0x09 , 0x61 , 0x08 , 0x22 , 0x49 , 0x09 , 0x61 , 0x08 ,
0x20 , 0x01 , 0x09 , 0x10 , 0x00 , 0xE2 , 0x27 , 0xFF ,
0xF3 , 0x64 , 0x20 , 0x01 , 0x09 , 0x20 , 0x00 , 0xE2 ,
0x27 , 0x00 , 0x00 , 0x00 , 0x00 , 0x01 , 0x09 , 0x21 ,
0x08 , 0x20 , 0x09 , 0xFF , 0xF9 , 0x08 , 0x22 , 0x41 ,
0x09 , 0x20 , 0x00 , 0xE2 , 0x26 , 0x09 , 0x11 , 0x1A ,
0x20 , 0x01 , 0x00 , 0x00 , 0x00 , 0x00 , 0x01 , 0x09 ,
0x68 , 0x00 , 0xE2 , 0x01 , 0x09 , 0x70 , 0x00 , 0xF2 ,
0x01 , 0x09 , 0x68 , 0x00 , 0xC0 , 0x01 , 0x00 , 0x00 ,
0x00 , 0x00 , 0x01 , 0x00 , 0x03 , 0x42 , 0xA1 , 0x01 ,
0xFF , 0xE1 , 0x08 , 0x20 , 0x01 , 0x00 , 0x03 , 0x41 ,
0xA1 , 0x01 , 0xFF , 0xE1 , 0x08 , 0x22 , 0x41 , 0x09 ,
0x38 , 0x00 , 0xE2 , 0x01 , 0x09 , 0x70 , 0x00 , 0xC0 ,
0x01 , 0x09 , 0x3F , 0xFF , 0x20 , 0x01 , 0xFF , 0xE1 ,
0x08 , 0x22 , 0x01 , 0x09 , 0x48 , 0x00 , 0xE2 , 0x01 ,
0x09 , 0x48 , 0x00 , 0xC0 , 0x01 , 0x09 , 0x29 , 0x07 ,
0x20 , 0x01 , 0x09 , 0x28 , 0x00 , 0xE2 , 0x01 , 0x09 ,
0x2F , 0xFF , 0x20 , 0x01 , 0x09 , 0x48 , 0x00 , 0xE2 ,
0x01 , 0x09 , 0x48 , 0x00 , 0xC0 , 0x01 , 0x07 , 0x87 ,
0xFF , 0x20 , 0x01 , 0x08 , 0xD8 , 0x00 , 0xE2 , 0x01 ,
0x07 , 0x87 , 0xFF , 0x20 , 0x01 , 0x08 , 0xE0 , 0x00 ,
0xE2 , 0x01 , 0x08 , 0xD3 , 0x68 , 0x20 , 0x01 , 0x06 ,
0xB3 , 0x69 , 0x22 , 0x01 , 0x09 , 0x80 , 0x00 , 0xE2 ,
0x01 , 0x08 , 0xDB , 0x6A , 0x20 , 0x01 , 0x08 , 0xE3 ,
0x6A , 0x22 , 0x01 , 0x00 , 0x00 , 0x00 , 0x00 , 0x01 ,
0x09 , 0x88 , 0x00 , 0xE2 , 0x01 , 0xFF , 0xF3 , 0x90 ,
0x20 , 0x01 , 0x09 , 0xE0 , 0x00 , 0xE2 , 0x01 , 0x09 ,
0xE1 , 0x09 , 0x20 , 0x01 , 0x09 , 0xE0 , 0x00 , 0xE2 ,
0x01 , 0x09 , 0xE0 , 0x00 , 0xC0 , 0x01 , 0x07 , 0x8F ,
0xFF , 0x20 , 0x01 , 0x07 , 0x8F , 0xFF , 0x22 , 0x01 ,
0x09 , 0xE8 , 0x00 , 0xE2 , 0x01 , 0x09 , 0xE8 , 0x00 ,
0xC0 , 0x01 , 0x09 , 0xEF , 0xFF , 0x20 , 0x01 , 0x00 ,
0x00 , 0x00 , 0x00 , 0x01 , 0x0A , 0x08 , 0x00 , 0xE2 ,
0x01 , 0x0A , 0x10 , 0x00 , 0xF2 , 0x01 , 0x09 , 0xB1 ,
0x08 , 0x20 , 0x01 , 0x09 , 0xB3 , 0x8D , 0x22 , 0x41 ,
0x0A , 0x13 , 0x8D , 0x22 , 0x01 , 0x09 , 0xA1 , 0x08 ,
0x34 , 0x01 , 0x09 , 0xA3 , 0x8D , 0x22 , 0x41 , 0x0A ,
0x0B , 0x8D , 0x82 , 0x01 , 0x0A , 0x0B , 0x8D , 0x22 ,
0x01 , 0x00 , 0x00 , 0x00 , 0x00 , 0x01 , 0x09 , 0xA8 ,
0x00 , 0xE2 , 0x01 , 0x09 , 0xB8 , 0x00 , 0xF2 , 0x01 ,
0x0A , 0x18 , 0x00 , 0xF6 , 0x01 , 0x09 , 0xA9 , 0x0C ,
0x20 , 0x01 , 0x0A , 0x30 , 0x00 , 0xF2 , 0x01 , 0x09 ,
0xD1 , 0x08 , 0x20 , 0x09 , 0x09 , 0xD8 , 0x00 , 0xE2 ,
0x01 , 0x0A , 0x31 , 0x08 , 0x20 , 0x01 , 0x09 , 0xC1 ,
0x08 , 0x20 , 0x01 , 0xFF , 0xF3 , 0x8F , 0x22 , 0x67 ,
0x09 , 0xC8 , 0x00 , 0xE2 , 0x01 , 0x0A , 0x19 , 0x08 ,
0x22 , 0x49 , 0x0A , 0x19 , 0x08 , 0x20 , 0x01 , 0x09 ,
0xC8 , 0x00 , 0xE2 , 0x27 , 0xFF , 0xF3 , 0x8E , 0x20 ,
0x01 , 0x09 , 0xD8 , 0x00 , 0xE2 , 0x27 , 0x00 , 0x00 ,
0x00 , 0x00 , 0x01 , 0x09 , 0xD9 , 0x08 , 0x20 , 0x09 ,
0xFF , 0xF9 , 0x08 , 0x22 , 0x41 , 0x09 , 0xD8 , 0x00 ,
0xE2 , 0x26 , 0x09 , 0xC9 , 0x1A , 0x20 , 0x01 , 0x00 ,
0x00 , 0x00 , 0x00 , 0x01 , 0x0A , 0x20 , 0x00 , 0xE2 ,
0x01 , 0x0A , 0x28 , 0x00 , 0xF2 , 0x01 , 0x0A , 0x20 ,
0x00 , 0xC0 , 0x01 , 0x00 , 0x00 , 0x00 , 0x00 , 0x01 ,
0x00 , 0x03 , 0x6C , 0xA1 , 0x01 , 0xFF , 0xE1 , 0x08 ,
0x20 , 0x01 , 0x00 , 0x03 , 0x6B , 0xA1 , 0x01 , 0xFF ,
0xE1 , 0x08 , 0x22 , 0x41 , 0x09 , 0xF0 , 0x00 , 0xE2 ,
0x01 , 0x0A , 0x28 , 0x00 , 0xC0 , 0x01 , 0x09 , 0xF7 ,
0xFF , 0x20 , 0x01 , 0xFF , 0xE1 , 0x08 , 0x22 , 0x01 ,
0x0A , 0x00 , 0x00 , 0xE2 , 0x01 , 0x0A , 0x00 , 0x00 ,
0xC0 , 0x01 , 0x09 , 0xE1 , 0x07 , 0x20 , 0x01 , 0x09 ,
0xE0 , 0x00 , 0xE2 , 0x01 , 0x09 , 0xE7 , 0xFF , 0x20 ,
0x01 , 0x0A , 0x00 , 0x00 , 0xE2 , 0x01 , 0x0A , 0x00 ,
0x00 , 0xC0 , 0x01 , 0x07 , 0x8F , 0xFF , 0x20 , 0x01 ,
0x09 , 0x90 , 0x00 , 0xE2 , 0x01 , 0x07 , 0x8F , 0xFF ,
0x20 , 0x01 , 0x09 , 0x98 , 0x00 , 0xE2 , 0x01 , 0x09 ,
0x8B , 0x92 , 0x20 , 0x01 , 0x07 , 0x83 , 0x93 , 0x22 ,
0x01 , 0x0A , 0x38 , 0x00 , 0xE2 , 0x01 , 0x09 , 0x81 ,
0x08 , 0x20 , 0x01 , 0x00 , 0x00 , 0x00 , 0x00 , 0x01 ,
0x0A , 0x90 , 0x00 , 0xF0 , 0x01 , 0xFF , 0xE9 , 0x08 ,
0x22 , 0x01 , 0x0A , 0x88 , 0x00 , 0xF2 , 0x01 , 0x0A ,
0x79 , 0x08 , 0x20 , 0x01 , 0x0A , 0x7B , 0xA0 , 0x22 ,
0x41 , 0x0A , 0x8B , 0xA0 , 0x22 , 0x01 , 0x0A , 0x69 ,
0x08 , 0x34 , 0x01 , 0x0A , 0x6B , 0xA0 , 0x22 , 0x41 ,
0x0A , 0x93 , 0xA0 , 0x22 , 0x01 , 0x00 , 0x00 , 0x00 ,
0x00 , 0x01 , 0x0A , 0x70 , 0x00 , 0xE2 , 0x01 , 0x0A ,
0x80 , 0x00 , 0xF2 , 0x01 , 0x0A , 0x98 , 0x00 , 0xE2 ,
0x01 , 0xFF , 0xF3 , 0x9C , 0x40 , 0x01 , 0x0A , 0x99 ,
0x08 , 0x20 , 0x09 , 0x0A , 0x9B , 0x94 , 0x20 , 0x01 ,
0xFF , 0xF3 , 0x95 , 0x22 , 0x01 , 0x01 , 0xB8 , 0x00 ,
0xE2 , 0x01 , 0x0A , 0x9B , 0x96 , 0x20 , 0x01 , 0xFF ,
0xF3 , 0x97 , 0x22 , 0x01 , 0x01 , 0xB8 , 0x00 , 0xE2 ,
0x23 , 0xFF , 0xF3 , 0x9D , 0x40 , 0x01 , 0x0A , 0x99 ,
0x08 , 0x20 , 0x09 , 0x0A , 0x9B , 0x98 , 0x20 , 0x01 ,
0xFF , 0xF3 , 0x99 , 0x22 , 0x01 , 0x01 , 0xB8 , 0x00 ,
0xE2 , 0x23 , 0xFF , 0xF3 , 0x9E , 0x40 , 0x01 , 0x0A ,
0x99 , 0x08 , 0x20 , 0x09 , 0x0A , 0x9B , 0x9A , 0x20 ,
0x01 , 0xFF , 0xF3 , 0x9B , 0x22 , 0x01 , 0x01 , 0xB8 ,
0x00 , 0xE2 , 0x23 , 0x00 , 0x00 , 0x00 , 0x00 , 0x01 ,
0x01 , 0xB8 , 0x00 , 0xC0 , 0x01 , 0x0A , 0x9F , 0xFF ,
0x20 , 0x41 , 0xFF , 0xF1 , 0x07 , 0x22 , 0x01 , 0x01 ,
0xB8 , 0x00 , 0xE2 , 0x01 , 0x01 , 0xBF , 0xFF , 0x20 ,
0x01 , 0x01 , 0xB8 , 0x00 , 0xE2 , 0x01 , 0x01 , 0xB8 ,
0x00 , 0xC0 , 0x01 , 0x0A , 0x9F , 0xFF , 0x20 , 0x41 ,
0xFF , 0xF1 , 0x07 , 0x22 , 0x01 , 0x01 , 0xB8 , 0x00 ,
0xE2 , 0x01 , 0x01 , 0xBF , 0xFF , 0x20 , 0x01 , 0x01 ,
0xB8 , 0x00 , 0xE2 , 0x01 , 0x01 , 0xB8 , 0x00 , 0xC0 ,
0x01 , 0x0A , 0x9F , 0xFF , 0x20 , 0x41 , 0xFF , 0xF1 ,
0x07 , 0x22 , 0x01 , 0x01 , 0xB8 , 0x00 , 0xE2 , 0x01 ,
0x01 , 0xBF , 0xFF , 0x20 , 0x01 , 0x01 , 0xB8 , 0x00 ,
0xE2 , 0x01 , 0x01 , 0xB8 , 0x00 , 0xC0 , 0x01 , 0x00 ,
0x03 , 0x9F , 0xA0 , 0x01 , 0xFF , 0xE7 , 0xFF , 0x20 ,
0x01 , 0x0A , 0x60 , 0x00 , 0xE2 , 0x01 , 0x00 , 0x00 ,
0x00 , 0x00 , 0x01 , 0x0A , 0x61 , 0x08 , 0x40 , 0x01 ,
0xFF , 0xF1 , 0x08 , 0x20 , 0x09 , 0x00 , 0x00 , 0x00 ,
0x00 , 0x01 , 0x0A , 0x60 , 0x00 , 0xE2 , 0x23 , 0x00 ,
0x00 , 0x00 , 0x00 , 0x01 , 0x0A , 0x61 , 0x08 , 0x40 ,
0x01 , 0x0A , 0x59 , 0x08 , 0x20 , 0x09 , 0x0A , 0x63 ,
0xA1 , 0x20 , 0x01 , 0x0A , 0x5B , 0xA1 , 0x22 , 0x41 ,
0x0A , 0x59 , 0x08 , 0x22 , 0x01 , 0x0A , 0x60 , 0x00 ,
0xE2 , 0x23 , 0x00 , 0x00 , 0x00 , 0x00 , 0x01 , 0x0A ,
0x61 , 0x08 , 0x20 , 0x01 , 0x0A , 0x50 , 0x00 , 0xE2 ,
0x01 , 0xFF , 0xF3 , 0xA2 , 0x22 , 0x49 , 0xFF , 0xF1 ,
0x08 , 0x20 , 0x01 , 0xFF , 0xE9 , 0x08 , 0x20 , 0x25 ,
0x0A , 0x48 , 0x00 , 0xE2 , 0x01 , 0x0A , 0x60 , 0x00 ,
0xC0 , 0x01 , 0x09 , 0x87 , 0xFF , 0x20 , 0x01 , 0x0A ,
0x40 , 0x00 , 0xE2 , 0x01 , 0x09 , 0x93 , 0xA3 , 0x20 ,
0x01 , 0x09 , 0x9B , 0xA3 , 0x22 , 0x01 , 0x00 , 0x00 ,
0x00 , 0x00 , 0x01 , 0x0A , 0xA0 , 0x00 , 0xE2 , 0x01 ,
0x0A , 0xA3 , 0xA4 , 0x20 , 0x01 , 0x06 , 0x83 , 0xA5 ,
0x22 , 0x01 , 0x0A , 0xA8 , 0x00 , 0xE2 , 0x01 , 0x0A ,
0x39 , 0x08 , 0x20 , 0x01 , 0x00 , 0x00 , 0x00 , 0x00 ,
0x01 , 0x0A , 0x90 , 0x00 , 0xF0 , 0x01 , 0xFF , 0xE9 ,
0x08 , 0x22 , 0x01 , 0x0A , 0x88 , 0x00 , 0xF2 , 0x01 ,
0x0A , 0xE9 , 0x08 , 0x20 , 0x01 , 0x0A , 0xEB , 0xB2 ,
0x22 , 0x41 , 0x0A , 0x8B , 0xB2 , 0x22 , 0x01 , 0x0A ,
0xD9 , 0x08 , 0x34 , 0x01 , 0x0A , 0xDB , 0xB2 , 0x22 ,
0x41 , 0x0A , 0x93 , 0xB2 , 0x22 , 0x01 , 0x00 , 0x00 ,
0x00 , 0x00 , 0x01 , 0x0A , 0xE0 , 0x00 , 0xE2 , 0x01 ,
0x0A , 0xF0 , 0x00 , 0xF2 , 0x01 , 0x0A , 0x98 , 0x00 ,
0xE2 , 0x01 , 0xFF , 0xF3 , 0xAE , 0x40 , 0x01 , 0x0A ,
0x99 , 0x08 , 0x20 , 0x09 , 0x0A , 0x9B , 0xA6 , 0x20 ,
0x01 , 0xFF , 0xF3 , 0xA7 , 0x22 , 0x01 , 0x01 , 0xB8 ,
0x00 , 0xE2 , 0x01 , 0x0A , 0x9B , 0xA8 , 0x20 , 0x01 ,
0xFF , 0xF3 , 0xA9 , 0x22 , 0x01 , 0x01 , 0xB8 , 0x00 ,
0xE2 , 0x23 , 0xFF , 0xF3 , 0xAF , 0x40 , 0x01 , 0x0A ,
0x99 , 0x08 , 0x20 , 0x09 , 0x0A , 0x9B , 0xAA , 0x20 ,
0x01 , 0xFF , 0xF3 , 0xAB , 0x22 , 0x01 , 0x01 , 0xB8 ,
0x00 , 0xE2 , 0x23 , 0xFF , 0xF3 , 0xB0 , 0x40 , 0x01 ,
0x0A , 0x99 , 0x08 , 0x20 , 0x09 , 0x0A , 0x9B , 0xAC ,
0x20 , 0x01 , 0xFF , 0xF3 , 0xAD , 0x22 , 0x01 , 0x01 ,
0xB8 , 0x00 , 0xE2 , 0x23 , 0x00 , 0x00 , 0x00 , 0x00 ,
0x01 , 0x01 , 0xB8 , 0x00 , 0xC0 , 0x01 , 0x0A , 0x9F ,
0xFF , 0x20 , 0x41 , 0xFF , 0xF1 , 0x07 , 0x22 , 0x01 ,
0x01 , 0xB8 , 0x00 , 0xE2 , 0x01 , 0x01 , 0xBF , 0xFF ,
0x20 , 0x01 , 0x01 , 0xB8 , 0x00 , 0xE2 , 0x01 , 0x01 ,
0xB8 , 0x00 , 0xC0 , 0x01 , 0x0A , 0x9F , 0xFF , 0x20 ,
0x41 , 0xFF , 0xF1 , 0x07 , 0x22 , 0x01 , 0x01 , 0xB8 ,
0x00 , 0xE2 , 0x01 , 0x01 , 0xBF , 0xFF , 0x20 , 0x01 ,
0x01 , 0xB8 , 0x00 , 0xE2 , 0x01 , 0x01 , 0xB8 , 0x00 ,
0xC0 , 0x01 , 0x0A , 0x9F , 0xFF , 0x20 , 0x41 , 0xFF ,
0xF1 , 0x07 , 0x22 , 0x01 , 0x01 , 0xB8 , 0x00 , 0xE2 ,
0x01 , 0x01 , 0xBF , 0xFF , 0x20 , 0x01 , 0x01 , 0xB8 ,
0x00 , 0xE2 , 0x01 , 0x01 , 0xB8 , 0x00 , 0xC0 , 0x01 ,
0x00 , 0x03 , 0xB1 , 0xA0 , 0x01 , 0xFF , 0xE7 , 0xFF ,
0x20 , 0x01 , 0x0A , 0xD0 , 0x00 , 0xE2 , 0x01 , 0x00 ,
0x00 , 0x00 , 0x00 , 0x01 , 0x0A , 0xD1 , 0x08 , 0x40 ,
0x01 , 0xFF , 0xF1 , 0x08 , 0x20 , 0x09 , 0x00 , 0x00 ,
0x00 , 0x00 , 0x01 , 0x0A , 0xD0 , 0x00 , 0xE2 , 0x23 ,
0x00 , 0x00 , 0x00 , 0x00 , 0x01 , 0x0A , 0xD1 , 0x08 ,
0x40 , 0x01 , 0x0A , 0xC9 , 0x08 , 0x20 , 0x09 , 0x0A ,
0xD3 , 0xB3 , 0x20 , 0x01 , 0x0A , 0xCB , 0xB3 , 0x22 ,
0x41 , 0x0A , 0xC9 , 0x08 , 0x22 , 0x01 , 0x0A , 0xD0 ,
0x00 , 0xE2 , 0x23 , 0x00 , 0x00 , 0x00 , 0x00 , 0x01 ,
0x0A , 0xD1 , 0x08 , 0x20 , 0x01 , 0x0A , 0xC0 , 0x00 ,
0xE2 , 0x01 , 0xFF , 0xF3 , 0xB4 , 0x22 , 0x49 , 0xFF ,
0xF1 , 0x08 , 0x20 , 0x01 , 0xFF , 0xE9 , 0x08 , 0x20 ,
0x25 , 0x0A , 0xB8 , 0x00 , 0xE2 , 0x01 , 0x0A , 0xD0 ,
0x00 , 0xC0 , 0x01 , 0x0A , 0x3F , 0xFF , 0x20 , 0x01 ,
0x0A , 0xB0 , 0x00 , 0xE2 , 0x01 , 0x0A , 0xB3 , 0xB5 ,
0x20 , 0x01 , 0x0A , 0xF8 , 0x00 , 0xE2 , 0x01 , 0x0A ,
0x43 , 0xB6 , 0x20 , 0x01 , 0x0B , 0x00 , 0x00 , 0xE2 ,
0x01 , 0x0A , 0xA9 , 0x08 , 0x20 , 0x01 , 0x00 , 0x00 ,
0x00 , 0x00 , 0x01 , 0x0A , 0x90 , 0x00 , 0xF0 , 0x01 ,
0xFF , 0xE9 , 0x08 , 0x22 , 0x01 , 0x0A , 0x88 , 0x00 ,
0xF2 , 0x01 , 0x0B , 0x41 , 0x08 , 0x20 , 0x01 , 0x0B ,
0x43 , 0xC3 , 0x22 , 0x41 , 0x0A , 0x8B , 0xC3 , 0x22 ,
0x01 , 0x0B , 0x31 , 0x08 , 0x34 , 0x01 , 0x0B , 0x33 ,
0xC3 , 0x22 , 0x41 , 0x0A , 0x93 , 0xC3 , 0x22 , 0x01 ,
0x00 , 0x00 , 0x00 , 0x00 , 0x01 , 0x0B , 0x38 , 0x00 ,
0xE2 , 0x01 , 0x0B , 0x48 , 0x00 , 0xF2 , 0x01 , 0x0A ,
0x98 , 0x00 , 0xE2 , 0x01 , 0xFF , 0xF3 , 0xBF , 0x40 ,
0x01 , 0x0A , 0x99 , 0x08 , 0x20 , 0x09 , 0x0A , 0x9B ,
0xB7 , 0x20 , 0x01 , 0xFF , 0xF3 , 0xB8 , 0x22 , 0x01 ,
0x01 , 0xB8 , 0x00 , 0xE2 , 0x01 , 0x0A , 0x9B , 0xB9 ,
0x20 , 0x01 , 0xFF , 0xF3 , 0xBA , 0x22 , 0x01 , 0x01 ,
0xB8 , 0x00 , 0xE2 , 0x23 , 0xFF , 0xF3 , 0xC0 , 0x40 ,
0x01 , 0x0A , 0x99 , 0x08 , 0x20 , 0x09 , 0x0A , 0x9B ,
0xBB , 0x20 , 0x01 , 0xFF , 0xF3 , 0xBC , 0x22 , 0x01 ,
0x01 , 0xB8 , 0x00 , 0xE2 , 0x23 , 0xFF , 0xF3 , 0xC1 ,
0x40 , 0x01 , 0x0A , 0x99 , 0x08 , 0x20 , 0x09 , 0x0A ,
0x9B , 0xBD , 0x20 , 0x01 , 0xFF , 0xF3 , 0xBE , 0x22 ,
0x01 , 0x01 , 0xB8 , 0x00 , 0xE2 , 0x23 , 0x00 , 0x00 ,
0x00 , 0x00 , 0x01 , 0x01 , 0xB8 , 0x00 , 0xC0 , 0x01 ,
0x0A , 0x9F , 0xFF , 0x20 , 0x41 , 0xFF , 0xF1 , 0x07 ,
0x22 , 0x01 , 0x01 , 0xB8 , 0x00 , 0xE2 , 0x01 , 0x01 ,
0xBF , 0xFF , 0x20 , 0x01 , 0x01 , 0xB8 , 0x00 , 0xE2 ,
0x01 , 0x01 , 0xB8 , 0x00 , 0xC0 , 0x01 , 0x0A , 0x9F ,
0xFF , 0x20 , 0x41 , 0xFF , 0xF1 , 0x07 , 0x22 , 0x01 ,
0x01 , 0xB8 , 0x00 , 0xE2 , 0x01 , 0x01 , 0xBF , 0xFF ,
0x20 , 0x01 , 0x01 , 0xB8 , 0x00 , 0xE2 , 0x01 , 0x01 ,
0xB8 , 0x00 , 0xC0 , 0x01 , 0x0A , 0x9F , 0xFF , 0x20 ,
0x41 , 0xFF , 0xF1 , 0x07 , 0x22 , 0x01 , 0x01 , 0xB8 ,
0x00 , 0xE2 , 0x01 , 0x01 , 0xBF , 0xFF , 0x20 , 0x01 ,
0x01 , 0xB8 , 0x00 , 0xE2 , 0x01 , 0x01 , 0xB8 , 0x00 ,
0xC0 , 0x01 , 0x00 , 0x03 , 0xC2 , 0xA0 , 0x01 , 0xFF ,
0xE7 , 0xFF , 0x20 , 0x01 , 0x0B , 0x28 , 0x00 , 0xE2 ,
0x01 , 0x00 , 0x00 , 0x00 , 0x00 , 0x01 , 0x0B , 0x29 ,
0x08 , 0x40 , 0x01 , 0xFF , 0xF1 , 0x08 , 0x20 , 0x09 ,
0x00 , 0x00 , 0x00 , 0x00 , 0x01 , 0x0B , 0x28 , 0x00 ,
0xE2 , 0x23 , 0x00 , 0x00 , 0x00 , 0x00 , 0x01 , 0x0B ,
0x29 , 0x08 , 0x40 , 0x01 , 0x0B , 0x21 , 0x08 , 0x20 ,
0x09 , 0x0B , 0x2B , 0xC4 , 0x20 , 0x01 , 0x0B , 0x23 ,
0xC4 , 0x22 , 0x41 , 0x0B , 0x21 , 0x08 , 0x22 , 0x01 ,
0x0B , 0x28 , 0x00 , 0xE2 , 0x23 , 0x00 , 0x00 , 0x00 ,
0x00 , 0x01 , 0x0B , 0x29 , 0x08 , 0x20 , 0x01 , 0x0B ,
0x18 , 0x00 , 0xE2 , 0x01 , 0xFF , 0xF3 , 0xC5 , 0x22 ,
0x49 , 0xFF , 0xF1 , 0x08 , 0x20 , 0x01 , 0xFF , 0xE9 ,
0x08 , 0x20 , 0x25 , 0x0B , 0x10 , 0x00 , 0xE2 , 0x01 ,
0x0B , 0x28 , 0x00 , 0xC0 , 0x01 , 0x0A , 0xAF , 0xFF ,
0x20 , 0x01 , 0x0B , 0x08 , 0x00 , 0xE2 , 0x01 , 0x0A ,
0xF9 , 0x08 , 0x20 , 0x01 , 0xFF , 0x70 , 0x00 , 0x02 ,
0x01 , 0x0B , 0x01 , 0x08 , 0x20 , 0x01 , 0xFF , 0x68 ,
0x00 , 0x02 , 0x01 , 0x0B , 0x0B , 0xC6 , 0x20 , 0x01 ,
0x0A , 0xAB , 0xC7 , 0x22 , 0x01 , 0x0B , 0x50 , 0x00 ,
0xE2 , 0x01 , 0x0B , 0x50 , 0x00 , 0xC0 , 0x01 , 0x0B ,
0x57 , 0xFF , 0x20 , 0x01 , 0x00 , 0x00 , 0x00 , 0x00 ,
0x01 , 0x0A , 0x90 , 0x00 , 0xE2 , 0x01 , 0x0A , 0x88 ,
0x00 , 0xF2 , 0x01 , 0x0B , 0x69 , 0x08 , 0x20 , 0x01 ,
0x0B , 0x6B , 0xC8 , 0x22 , 0x41 , 0x0A , 0x8B , 0xC8 ,
0x22 , 0x01 , 0x0B , 0x59 , 0x08 , 0x34 , 0x01 , 0x0B ,
0x5B , 0xC8 , 0x22 , 0x41 , 0x0A , 0x93 , 0xC8 , 0x82 ,
0x01 , 0x0A , 0x93 , 0xC8 , 0x22 , 0x01 , 0x00 , 0x00 ,
0x00 , 0x00 , 0x01 , 0x0B , 0x60 , 0x00 , 0xE2 , 0x01 ,
0x0B , 0x70 , 0x00 , 0xF2 , 0x01 , 0x0B , 0x98 , 0x00 ,
0xF6 , 0x01 , 0x0B , 0x89 , 0x08 , 0x20 , 0x09 , 0x0B ,
0x90 , 0x00 , 0xE2 , 0x01 , 0x0B , 0x79 , 0x08 , 0x20 ,
0x01 , 0xFF , 0xF3 , 0xCA , 0x22 , 0x67 , 0x0B , 0x80 ,
0x00 , 0xE2 , 0x01 , 0x0B , 0x99 , 0x08 , 0x22 , 0x49 ,
0x0B , 0x99 , 0x08 , 0x20 , 0x01 , 0x0B , 0x80 , 0x00 ,
0xE2 , 0x27 , 0xFF , 0xF3 , 0xC9 , 0x20 , 0x01 , 0x0B ,
0x90 , 0x00 , 0xE2 , 0x27 , 0x00 , 0x00 , 0x00 , 0x00 ,
0x01 , 0x0B , 0x91 , 0x08 , 0x20 , 0x09 , 0xFF , 0xF9 ,
0x08 , 0x22 , 0x41 , 0x0B , 0x90 , 0x00 , 0xE2 , 0x26 ,
0x0B , 0x81 , 0x08 , 0x20 , 0x01 , 0x0B , 0x51 , 0x08 ,
0x20 , 0x01 , 0x0B , 0xA0 , 0x00 , 0xE2 , 0x01 , 0x0B ,
0xA1 , 0x08 , 0x20 , 0x01 , 0xFF , 0x78 , 0x00 , 0x02 ,
0x01 , 0x0B , 0xA3 , 0xCB , 0x20 , 0x01 , 0x0B , 0xA8 ,
0x00 , 0xE2 , 0x01 , 0x0B , 0xA9 , 0x08 , 0x20 , 0x01 ,
0xFF , 0x80 , 0x00 , 0x02 , 0x01 , 0x01 , 0x00 , 0x05 ,
0x00 , 0x08 , 0x1C , 0x00 , 0x1C , 0x01 , 0x00 , 0x04 ,
0x00 , 0x08 , 0x1D , 0x0B , 0x01 , 0x00 , 0x05 , 0x00 ,
0x08 , 0x1E , 0x18 , 0x00 , 0x01 , 0x00 , 0x04 , 0x00 ,
0x08 , 0x1F , 0x00 , 0x01 , 0x00 , 0x06 , 0x00 , 0x08 ,
0x20 , 0x44 , 0xFF , 0x40 , 0x01 , 0x00 , 0x06 , 0x00 ,
0x08 , 0x21 , 0xCC , 0xFF , 0x0C , 0x01 , 0x00 , 0x05 ,
0x00 , 0x08 , 0x22 , 0x00 , 0x00 , 0x01 , 0x00 , 0x05 ,
0x00 , 0x08 , 0x23 , 0x00 , 0x00 , 0x01 , 0x00 , 0x05 ,
0x00 , 0x08 , 0x24 , 0x80 , 0x00 , 0x01 , 0x00 , 0x05 ,
0x00 , 0x08 , 0x25 , 0x00 , 0x00 , 0x01 , 0x00 , 0x05 ,
0x00 , 0x08 , 0x26 , 0x00 , 0x00 , 0x01 , 0x00 , 0x05 ,
0x00 , 0x08 , 0x27 , 0x00 , 0x01 , 0x01 , 0x00 , 0x05 ,
0x00 , 0x08 , 0x1C , 0x00 , 0x1C , 0x06 , 0x00 , 0x00 ,
0x00 , 0x00 , 0x00 , 0x00 , 0x00 , 0x00 , 0x00 , 0x00 ,
0x00 , 0x00 , 0x00 , 0x00 , 0x00 , 0x00 , 0x00 , 0x00 ,
0x00 , 0x00 , 0x00 , 0x00 , 0x00 , 0x00 , 0x00 , 0x00 ,
0x00 , 0x00 , 0x00 , 0x00 , 0x00 , 0x00 , 0x00 , 0x00 ,
0x00 , 0x00 , 0x00 , 0x00 , 0x00 , 0x00 , 0x00 , 0x00 ,
